can_btu_tb.vcd
$date
    Mar 24, 2026  20:51:00
$end
$version
    TOOL:	xmsim(64)	23.09-s013
$end
$timescale
    1 ns
$end

$scope module tb_can_btu $end
$var reg       1 !    clk $end

$scope module btu_if $end
$var wire      1 "    clk  $end
$var reg       1 #    rst_n $end
$var reg       8 $    prescaler [7:0] $end
$var reg       3 %    prop_seg [2:0] $end
$var reg       3 &    phase_seg1 [2:0] $end
$var reg       3 '    phase_seg2 [2:0] $end
$var reg       2 (    sjw [1:0] $end
$var reg       1 )    can_rx $end
$var reg       1 *    sync_en $end
$var reg       1 +    hard_sync $end
$var reg       1 ,    bit_tick $end
$var reg       1 -    sample_tick $end
$var reg       1 .    tx_tick $end
$var reg       1 /    sample_point $end
$var reg       8 0    bit_time_cnt [7:0] $end
$var reg       1 1    sync_locked $end
$var reg       1 2    edge_detected $end
$var reg       1 3    sync_active $end

$scope clocking drv_cb $end
$var reg       1 4    rst_n $end
$var reg       8 5    prescaler [7:0] $end
$var reg       3 6    prop_seg [2:0] $end
$var reg       3 7    phase_seg1 [2:0] $end
$var reg       3 8    phase_seg2 [2:0] $end
$var reg       2 9    sjw [1:0] $end
$var reg       1 :    can_rx $end
$var reg       1 ;    sync_en $end
$var reg       1 <    hard_sync $end
$var reg       1 =    bit_tick $end
$var reg       1 >    sample_tick $end
$var reg       1 ?    tx_tick $end
$var reg       1 @    sample_point $end
$var reg       8 A    bit_time_cnt [7:0] $end
$var reg       1 B    sync_locked $end
$var reg       1 C    edge_detected $end
$var reg       1 D    sync_active $end
$upscope $end


$scope clocking mon_cb $end
$var reg       1 E    rst_n $end
$var reg       8 F    prescaler [7:0] $end
$var reg       3 G    prop_seg [2:0] $end
$var reg       3 H    phase_seg1 [2:0] $end
$var reg       3 I    phase_seg2 [2:0] $end
$var reg       2 J    sjw [1:0] $end
$var reg       1 K    can_rx $end
$var reg       1 L    sync_en $end
$var reg       1 M    hard_sync $end
$var reg       1 N    bit_tick $end
$var reg       1 O    sample_tick $end
$var reg       1 P    tx_tick $end
$var reg       1 Q    sample_point $end
$var reg       8 R    bit_time_cnt [7:0] $end
$var reg       1 S    sync_locked $end
$var reg       1 T    edge_detected $end
$var reg       1 U    sync_active $end
$upscope $end

$upscope $end


$scope module DUT $end
$var parameter 32 V    CLK_FREQ_HZ $end
$var parameter 32 W    BAUD_RATE $end
$var wire      1 "    clk  $end
$var wire      1 X    rst_n  $end
$var wire      8 Y    prescaler [7:0] $end
$var wire      3 Z    prop_seg [2:0] $end
$var wire      3 [    phase_seg1 [2:0] $end
$var wire      3 \    phase_seg2 [2:0] $end
$var wire      2 ]    sjw [1:0] $end
$var wire      1 ^    can_rx  $end
$var wire      1 _    sync_en  $end
$var wire      1 `    hard_sync  $end
$var reg       1 a    bit_tick $end
$var reg       1 b    sample_tick $end
$var reg       1 c    tx_tick $end
$var reg       1 d    sample_point $end
$var reg       8 e    bit_time_cnt [7:0] $end
$var reg       1 f    sync_locked $end
$var reg       1 g    edge_detected $end
$var reg       1 h    sync_active $end
$var reg       8 i    tq_counter [7:0] $end
$var reg       5 j    tq_limit [4:0] $end
$var reg       5 k    sample_tq_base [4:0] $end
$var reg       5 l    sample_tq_adj [4:0] $end
$var reg       5 m    tx_tq [4:0] $end
$var reg       5 n    total_tq_base [4:0] $end
$var reg       5 o    total_tq_adj [4:0] $end
$var reg       8 p    presc_counter [7:0] $end
$var reg       8 q    prescaler_safe [7:0] $end
$var reg       1 r    presc_tick $end
$var reg       2 s    sync_state [1:0] $end
$var reg       4 t    phase_seg1_adj [3:0] $end
$var reg       4 u    phase_seg2_adj [3:0] $end
$var reg       1 v    sync_done $end
$var reg       1 w    phase_adjusted $end
$var reg       1 x    prev_bus_value $end
$var reg       1 y    edge_detected_int $end
$var reg       4 z    phase_error [3:0] $end
$upscope $end

$upscope $end

$enddefinitions $end
$dumpvars
b1111010000100100000 W
b10111110101111000010000000 V
0!
0"
0#
b100 $
b10 %
b100 &
b100 '
b10 (
1)
1*
0+
0,
0-
0.
0/
b0 0
01
02
03
x4
bx 5
bx 6
bx 7
bx 8
bx 9
x:
x;
x<
x=
x>
x?
x@
bx A
xB
xC
xD
xE
bx F
bx G
bx H
bx I
bx J
xK
xL
xM
xN
xO
xP
xQ
bx R
xS
xT
xU
0X
b100 Y
b10 Z
b100 [
b100 \
b10 ]
1^
1_
0`
0a
0b
0c
0d
b0 e
0f
0g
0h
b0 i
b1010 j
b111 k
b111 l
b1 m
b1011 n
b1011 o
b0 p
b100 q
0r
b0 s
b100 t
b100 u
0v
0w
1x
0y
b111 z
$end
#10
1!
1"
0E
b100 F
b10 G
b100 H
b100 I
b10 J
1K
1L
0M
0N
0O
0P
0Q
b0 R
0S
0T
0U
0=
0>
0?
0@
b0 A
0B
0C
0D
#11
b11001011 $
b11001011 5
b101 %
b101 6
b110 &
b110 7
b101 '
b101 8
b10 9
1:
1;
0<
b101 \
b110 [
b101 Z
b11001011 Y
b10001 n
b1100 k
b1110 o
b1010 l
b11001011 q
b10000 j
b1100 z
#20
0!
0"
#30
1!
1"
b11001011 F
b101 G
b110 H
b101 I
b110 t
b101 u
b1100 l
b10001 o
#40
0!
0"
#50
1#
1!
1"
1X
b1 p
#51
b11111001 $
b11111001 5
b11 %
b11 6
b111 '
b111 8
b1 (
b1 9
b1 ]
b111 \
b11 Z
b11111001 Y
b1111 o
b1010 l
b1010 k
b11111001 q
b1010 z
#60
0!
0"
#70
1!
1"
1E
b11111001 F
b11 G
b111 I
b1 J
b10 p
#80
0!
0"
#90
1!
1"
b11 p
#91
b1010011 $
b1010011 5
b111 &
b111 7
b100 '
b100 8
b10 (
b10 9
b10 ]
b100 \
b111 [
b1010011 Y
b1111 n
b1011 k
b1010011 q
b1110 j
b1011 z
#100
0!
0"
#110
1!
1"
b1010011 F
b111 H
b100 I
b10 J
b100 p
#120
0!
0"
#130
1!
1"
b101 p
#131
b11011011 $
b11011011 5
b101 %
b101 6
b101 &
b101 7
b101 '
b101 8
b101 \
b101 [
b101 Z
b11011011 Y
b10000 n
b10001 o
b1100 l
b11011011 q
b1111 j
#140
0!
0"
#150
1!
1"
b11011011 F
b101 G
b101 H
b101 I
b110 p
#160
0!
0"
#170
1!
1"
b111 p
#171
b10010000 $
b10010000 5
b110 &
b110 7
b110 '
b110 8
b11 (
b11 9
b11 ]
b110 \
b110 [
b10010000 Y
b10010 n
b1100 k
b10010000 q
b10001 j
b1100 z
#180
0!
0"
#190
1!
1"
b10010000 F
b110 H
b110 I
b11 J
b1000 p
#200
0!
0"
#210
1!
1"
b1001 p
#211
b1110011 $
b1110011 5
b10 %
b10 6
b11 &
b11 7
b100 '
b100 8
b1 (
b1 9
0*
0;
0_
b1 ]
b100 \
b11 [
b10 Z
b1110011 Y
b1010 n
b110 k
b1110 o
b1001 l
b1110011 q
b1001 j
b110 z
#220
0!
0"
#230
1!
1"
b1110011 F
b10 G
b11 H
b100 I
b1 J
0L
b1010 p
#240
0!
0"
#250
1!
1"
b1011 p
#251
b10000011 $
b10000011 5
b1 %
b1 6
b101 &
b101 7
b10 (
b10 9
1*
1;
1_
b10 ]
b101 [
b1 Z
b10000011 Y
b111 k
b1011 n
b1101 o
b1000 l
b10000011 q
b111 z
b1010 j
#260
0!
0"
#270
1!
1"
b10000011 F
b1 G
b101 H
b10 J
1L
b1100 p
#280
0!
0"
#290
1!
1"
b1101 p
#291
b11000000 $
b11000000 5
b110 %
b110 6
b11 '
b11 8
b1 (
b1 9
b1 ]
b11 \
b110 Z
b11000000 Y
b1111 n
b10010 o
b1101 l
b1100 k
b11000000 q
b1110 j
b1100 z
#300
0!
0"
#310
1!
1"
b11000000 F
b110 G
b11 I
b1 J
b1110 p
#320
0!
0"
#330
1!
1"
b1111 p
#331
b101010 $
b101010 5
b10 %
b10 6
b1 &
b1 7
b100 '
b100 8
b100 \
b1 [
b10 Z
b101010 Y
b1000 n
b100 k
b1110 o
b1001 l
b101010 q
b111 j
b100 z
#340
0!
0"
#350
1!
1"
b101010 F
b10 G
b1 H
b100 I
b10000 p
#360
0!
0"
#370
1!
1"
b10001 p
#371
b11000010 $
b11000010 5
b110 %
b110 6
b100 &
b100 7
b11 '
b11 8
b11 \
b100 [
b110 Z
b11000010 Y
b1110 n
b1011 k
b10010 o
b1101 l
b11000010 q
b1101 j
b1011 z
#380
0!
0"
#390
1!
1"
b11000010 F
b110 G
b100 H
b11 I
b10010 p
#400
0!
0"
#410
1!
1"
b10011 p
#411
b10000111 $
b10000111 5
b10 %
b10 6
b11 &
b11 7
b100 '
b100 8
0*
0;
0_
b100 \
b11 [
b10 Z
b10000111 Y
b1010 n
b110 k
b1110 o
b1001 l
b10000111 q
b1001 j
b110 z
#420
0!
0"
#430
1!
1"
b10000111 F
b10 G
b11 H
b100 I
0L
b10100 p
#440
0!
0"
#450
1!
1"
b10101 p
#451
b1111001 $
b1111001 5
b111 %
b111 6
b10 (
b10 9
1*
1;
1_
b10 ]
b111 Z
b1111001 Y
b10011 o
b1110 l
b1011 k
b1111 n
b1111001 q
b1110 j
b1011 z
#460
0!
0"
#470
1!
1"
b1111001 F
b111 G
b10 J
1L
b10110 p
#480
0!
0"
#490
1!
1"
b10111 p
#491
b10011001 $
b10011001 5
b1 %
b1 6
b100 &
b100 7
b10 '
b10 8
b1 (
b1 9
b1 ]
b10 \
b100 [
b1 Z
b10011001 Y
b1000 n
b110 k
b1101 o
b1000 l
b10011001 q
b111 j
b110 z
#500
0!
0"
#510
1!
1"
b10011001 F
b1 G
b100 H
b10 I
b1 J
b11000 p
#520
0!
0"
#530
1!
1"
b11001 p
#531
b11100110 $
b11100110 5
b110 %
b110 6
b101 &
b101 7
b101 '
b101 8
b10 (
b10 9
b10 ]
b101 \
b101 [
b110 Z
b11100110 Y
b10001 n
b1100 k
b10010 o
b1101 l
b11100110 q
b10000 j
b1100 z
#540
0!
0"
#550
1!
1"
b11100110 F
b110 G
b101 H
b101 I
b10 J
b11010 p
#560
0!
0"
#570
1!
1"
b11011 p
#571
b1100000 $
b1100000 5
b100 %
b100 6
b11 &
b11 7
b110 '
b110 8
1+
1<
1`
b110 \
b11 [
b100 Z
b1100000 Y
b1110 n
b1000 k
b10000 o
b1011 l
b1100000 q
b1101 j
b1000 z
#580
0!
0"
#590
1!
1"
b1100000 F
b100 G
b11 H
b110 I
1M
b11100 p
b11 t
b110 u
1v
1h
b11 s
b1000 l
b1110 o
13
#600
0!
0"
#610
1!
1"
1U
1D
1f
b11101 p
0h
03
11
#611
b111 $
b111 5
b101 %
b101 6
b110 &
b110 7
0+
0<
0`
b110 [
b101 Z
b111 Y
b1100 k
b10010 n
b1111 o
b1001 l
b111 q
b1100 z
b10001 j
#620
0!
0"
#630
1!
1"
b111 F
b101 G
b110 H
0M
1S
0U
1B
0D
b0 p
1r
#640
0!
0"
#650
1!
1"
b1 i
b1 p
0r
b110 t
0v
b0 s
1a
b1011 z
b1 e
b1100 l
b10010 o
b1 0
1,
#651
b11011100 $
b11011100 5
b111 %
b111 6
b111 '
b111 8
b1 (
b1 9
b1 ]
b111 \
b111 Z
b11011100 Y
b10101 n
b10100 o
b1110 l
b1110 k
b11011100 q
b10100 j
b1101 z
#660
0!
0"
#670
1!
1"
b11011100 F
b111 G
b111 I
b1 J
1N
b1 R
1=
b1 A
b10 p
0a
0,
#680
0!
0"
#690
1!
1"
0N
0=
b11 p
#691
b11011110 $
b11011110 5
b100 %
b100 6
b111 &
b111 7
b101 '
b101 8
b101 \
b111 [
b100 Z
b11011110 Y
b10001 n
b1100 k
b10001 o
b1011 l
b11011110 q
b10000 j
b1011 z
#700
0!
0"
#710
1!
1"
b11011110 F
b100 G
b111 H
b101 I
b100 p
#720
0!
0"
#730
1!
1"
b101 p
#731
b1101 $
b1101 5
b110 %
b110 6
b10 &
b10 7
b10 '
b10 8
b10 (
b10 9
1+
1<
1`
b10 ]
b10 \
b10 [
b110 Z
b1101 Y
b1011 n
b1001 k
b10011 o
b1101 l
b1101 q
b1010 j
b1000 z
#740
0!
0"
#750
1!
1"
b1101 F
b110 G
b10 H
b10 I
b10 J
1M
b110 p
b10 t
b10 u
1v
1h
b11 s
b1001 l
b1011 o
13
#760
0!
0"
#770
1!
1"
1U
1D
b111 p
0h
03
#771
b1101010 $
b1101010 5
b11 %
b11 6
b110 &
b110 7
b100 '
b100 8
b11 (
b11 9
0+
0<
0`
b11 ]
b100 \
b110 [
b11 Z
b1101010 Y
b1110 n
b1010 k
b1000 o
b110 l
b1101010 q
b1101 j
b1001 z
#780
0!
0"
#790
1!
1"
b1101010 F
b11 G
b110 H
b100 I
b11 J
0M
0U
0D
b1000 p
#800
0!
0"
#810
1!
1"
b1001 p
#811
b11110100 $
b11110100 5
b1 %
b1 6
b11 '
b11 8
b11 \
b1 Z
b11110100 Y
b1011 n
b110 o
b100 l
b1000 k
b11110100 q
b1010 j
b111 z
#820
0!
0"
#830
1!
1"
b11110100 F
b1 G
b11 I
b1010 p
#840
0!
0"
#850
1!
1"
b1011 p
#851
b10101011 $
b10101011 5
b11 &
b11 7
b100 '
b100 8
b10 (
b10 9
b10 ]
b100 \
b11 [
b10101011 Y
b1001 n
b101 k
b10101011 q
b1000 j
b100 z
#860
0!
0"
#870
1!
1"
b10101011 F
b11 H
b100 I
b10 J
b1100 p
#880
0!
0"
#890
1!
1"
b1101 p
#891
b10010000 $
b10010000 5
b110 %
b110 6
b110 &
b110 7
b111 '
b111 8
b111 \
b110 [
b110 Z
b10010000 Y
b10100 n
b1101 k
b1011 o
b1001 l
b10010000 q
b10011 j
b1100 z
#900
0!
0"
#910
1!
1"
b10010000 F
b110 G
b110 H
b111 I
b1110 p
#920
0!
0"
#930
1!
1"
b1111 p
#931
b10100010 $
b10100010 5
b101 %
b101 6
b111 &
b111 7
b110 '
b110 8
0)
0:
1+
1<
1`
0^
b110 \
b111 [
b101 Z
b10100010 Y
b10011 n
b1010 o
b1000 l
b10100010 q
b10010 j
#940
0!
0"
#950
1!
1"
b10100010 F
b101 G
b111 H
b110 I
0K
1M
b10000 p
0x
1y
1g
12
#960
0!
0"
#970
1!
1"
1T
1C
b10001 p
0y
0g
02
#971
b11100001 $
b11100001 5
b111 %
b111 6
b101 &
b101 7
b101 '
b101 8
b11 (
b11 9
1)
1:
0+
0<
0`
1^
b11 ]
b101 \
b101 [
b111 Z
b11100001 Y
b10010 n
b1100 o
b1010 l
b11100001 q
b10001 j
#980
0!
0"
#990
1!
1"
b11100001 F
b111 G
b101 H
b101 I
b11 J
1K
0M
0T
0C
b10010 p
1x
#1000
0!
0"
#1010
1!
1"
b10011 p
#1011
b1001110 $
b1001110 5
b11 %
b11 6
b110 &
b110 7
b100 '
b100 8
b100 \
b110 [
b11 Z
b1001110 Y
b1110 n
b1010 k
b1000 o
b110 l
b1001110 q
b1101 j
b1001 z
#1020
0!
0"
#1030
1!
1"
b1001110 F
b11 G
b110 H
b100 I
b10100 p
#1040
0!
0"
#1050
1!
1"
b10101 p
#1051
b11100111 $
b11100111 5
b100 %
b100 6
b100 &
b100 7
b101 '
b101 8
b1 (
b1 9
0)
0:
0^
b1 ]
b101 \
b100 [
b100 Z
b11100111 Y
b1001 k
b1001 o
b111 l
b11100111 q
b1000 z
#1060
0!
0"
#1070
1!
1"
b11100111 F
b100 G
b100 H
b101 I
b1 J
0K
b10110 p
0x
1y
1g
12
#1080
0!
0"
#1090
1!
1"
1T
1C
b10111 p
0y
0g
02
#1091
b10101110 $
b10101110 5
b1 &
b1 7
b111 '
b111 8
1)
1:
1+
1<
1`
1^
b111 \
b1 [
b10101110 Y
b1101 n
b110 k
b10101110 q
b1100 j
b101 z
#1100
0!
0"
#1110
1!
1"
b10101110 F
b1 H
b111 I
1K
1M
0T
0C
b11000 p
1x
#1120
0!
0"
#1130
1!
1"
b11001 p
#1131
b10100011 $
b10100011 5
b1 %
b1 6
b110 &
b110 7
b110 '
b110 8
b10 (
b10 9
0+
0<
0`
b10 ]
b110 \
b110 [
b1 Z
b10100011 Y
b1110 n
b1000 k
b110 o
b100 l
b10100011 q
b1101 j
b111 z
#1140
0!
0"
#1150
1!
1"
b10100011 F
b1 G
b110 H
b110 I
b10 J
0M
b11010 p
#1160
0!
0"
#1170
1!
1"
b11011 p
#1171
b11000100 $
b11000100 5
b111 %
b111 6
b11 &
b11 7
b11 (
b11 9
1+
1<
1`
b11 ]
b11 [
b111 Z
b11000100 Y
b1011 k
b10001 n
b1100 o
b1010 l
b11000100 q
b1010 z
b10000 j
#1180
0!
0"
#1190
1!
1"
b11000100 F
b111 G
b11 H
b11 J
1M
b11100 p
#1200
0!
0"
#1210
1!
1"
b11101 p
#1211
b10011 $
b10011 5
b10 %
b10 6
b110 &
b110 7
b11 '
b11 8
0)
0:
0+
0<
0`
0^
b11 \
b110 [
b10 Z
b10011 Y
b1100 n
b1001 k
b111 o
b101 l
b10011 q
b1011 j
b1000 z
#1220
0!
0"
#1230
1!
1"
b10011 F
b10 G
b110 H
b11 I
0K
0M
b0 p
1r
0x
1y
1g
12
#1240
0!
0"
#1250
1!
1"
1T
1C
b10 i
b1 p
0r
0y
1c
b111 z
b10 e
0g
02
b10 0
1.
#1251
b10010000 $
b10010000 5
b100 %
b100 6
b100 '
b100 8
b10 (
b10 9
1)
1:
1^
b10 ]
b100 \
b100 Z
b10010000 Y
b1111 n
b1001 o
b111 l
b1011 k
b10010000 q
b1110 j
b1001 z
#1260
0!
0"
#1270
1!
1"
b10010000 F
b100 G
b100 I
b10 J
1K
1P
b10 R
0T
1?
b10 A
0C
b10 p
1x
0c
0.
#1280
0!
0"
#1290
1!
1"
0P
0?
b11 p
#1291
b111001 $
b111001 5
b101 %
b101 6
b10 &
b10 7
b101 '
b101 8
b101 \
b10 [
b101 Z
b111001 Y
b1101 n
b1000 k
b1010 o
b1000 l
b111001 q
b1100 j
b110 z
#1300
0!
0"
#1310
1!
1"
b111001 F
b101 G
b10 H
b101 I
b100 p
#1320
0!
0"
#1330
1!
1"
b101 p
#1331
b10000 $
b10000 5
b100 %
b100 6
b101 &
b101 7
b100 '
b100 8
0)
0:
1+
1<
1`
0^
b100 \
b101 [
b100 Z
b10000 Y
b1110 n
b1010 k
b1001 o
b111 l
b10000 q
b1101 j
b1000 z
#1340
0!
0"
#1350
1!
1"
b10000 F
b100 G
b101 H
b100 I
0K
1M
b110 p
0x
1y
1g
12
#1360
0!
0"
#1370
1!
1"
1T
1C
b111 p
0y
0g
02
#1371
b10100 $
b10100 5
b1 %
b1 6
b111 &
b111 7
b110 '
b110 8
1)
1:
0+
0<
0`
1^
b110 \
b111 [
b1 Z
b10100 Y
b1111 n
b1001 k
b110 o
b100 l
b10100 q
b1110 j
b111 z
#1380
0!
0"
#1390
1!
1"
b10100 F
b1 G
b111 H
b110 I
1K
0M
0T
0C
b1000 p
1x
#1400
0!
0"
#1410
1!
1"
b1001 p
#1411
b1000110 $
b1000110 5
b110 %
b110 6
b100 &
b100 7
b101 '
b101 8
b101 \
b100 [
b110 Z
b1000110 Y
b10000 n
b1011 k
b1011 o
b1001 l
b1000110 q
b1111 j
b1001 z
#1420
0!
0"
#1430
1!
1"
b1000110 F
b110 G
b100 H
b101 I
b1010 p
#1440
0!
0"
#1450
1!
1"
b1011 p
#1451
b10100101 $
b10100101 5
b11 %
b11 6
b110 &
b110 7
b110 '
b110 8
b11 (
b11 9
0*
0;
1+
1<
1`
0_
b11 ]
b110 \
b110 [
b11 Z
b10100101 Y
b1010 k
b1000 o
b110 l
b10100101 q
b1000 z
#1460
0!
0"
#1470
1!
1"
b10100101 F
b11 G
b110 H
b110 I
b11 J
0L
1M
b1100 p
#1480
0!
0"
#1490
1!
1"
b1101 p
#1491
b110001 $
b110001 5
b10 %
b10 6
b101 &
b101 7
b11 '
b11 8
b10 (
b10 9
0+
0<
0`
b10 ]
b11 \
b101 [
b10 Z
b110001 Y
b1011 n
b1000 k
b111 o
b101 l
b110001 q
b1010 j
b110 z
#1500
0!
0"
#1510
1!
1"
b110001 F
b10 G
b101 H
b11 I
b10 J
0M
b1110 p
#1520
0!
0"
#1530
1!
1"
b1111 p
#1531
b11101010 $
b11101010 5
b1 &
b1 7
b111 '
b111 8
b1 (
b1 9
1*
1;
1_
b1 ]
b111 \
b1 [
b11101010 Y
b100 k
b11101010 q
b10 z
#1540
0!
0"
#1550
1!
1"
b11101010 F
b1 H
b111 I
b1 J
1L
b10000 p
#1560
0!
0"
#1570
1!
1"
b10001 p
#1571
b11010001 $
b11010001 5
b111 %
b111 6
b11 &
b11 7
b110 '
b110 8
b11 (
b11 9
0)
0:
0^
b11 ]
b110 \
b11 [
b111 Z
b11010001 Y
b10001 n
b1011 k
b1100 o
b1010 l
b11010001 q
b10000 j
b1001 z
#1580
0!
0"
#1590
1!
1"
b11010001 F
b111 G
b11 H
b110 I
b11 J
0K
b10010 p
0x
1y
1g
12
#1600
0!
0"
#1610
1!
1"
1T
1C
b10011 p
0y
0g
02
#1611
b11100101 $
b11100101 5
b11 '
b11 8
1)
1:
0*
0;
0_
1^
b11 \
b11100101 Y
b1110 n
b11100101 q
b1101 j
#1620
0!
0"
#1630
1!
1"
b11100101 F
b11 I
1K
0L
0T
0C
b10100 p
1x
#1640
0!
0"
#1650
1!
1"
b10101 p
#1651
b100110 $
b100110 5
b101 %
b101 6
b111 &
b111 7
b10 (
b10 9
1*
1;
1_
b10 ]
b111 [
b101 Z
b100110 Y
b1101 k
b10000 n
b1010 o
b1000 l
b100110 q
b1011 z
b1111 j
#1660
0!
0"
#1670
1!
1"
b100110 F
b101 G
b111 H
b10 J
1L
b10110 p
#1680
0!
0"
#1690
1!
1"
b10111 p
#1691
b10010100 $
b10010100 5
b110 %
b110 6
b10 &
b10 7
b100 '
b100 8
b1 (
b1 9
1+
1<
1`
b1 ]
b100 \
b10 [
b110 Z
b10010100 Y
b1101 n
b1001 k
b1011 o
b1001 l
b10010100 q
b1100 j
b111 z
#1700
0!
0"
#1710
1!
1"
b10010100 F
b110 G
b10 H
b100 I
b1 J
1M
b11000 p
#1720
0!
0"
#1730
1!
1"
b11001 p
#1731
b110000 $
b110000 5
b100 %
b100 6
b10 '
b10 8
b10 (
b10 9
0)
0:
0+
0<
0`
0^
b10 ]
b10 \
b100 Z
b110000 Y
b1001 n
b1001 o
b111 l
b111 k
b110000 q
b1000 j
b101 z
#1740
0!
0"
#1750
1!
1"
b110000 F
b100 G
b10 I
b10 J
0K
0M
b11010 p
0x
1y
1g
12
#1760
0!
0"
#1770
1!
1"
1T
1C
b11011 p
0y
0g
02
#1771
b11111001 $
b11111001 5
b111 %
b111 6
b110 &
b110 7
b11 '
b11 8
b1 (
b1 9
b1 ]
b11 \
b110 [
b111 Z
b11111001 Y
b10001 n
b1110 k
b1100 o
b1010 l
b11111001 q
b10000 j
b1100 z
#1780
0!
0"
#1790
1!
1"
b11111001 F
b111 G
b110 H
b11 I
b1 J
0T
0C
b11100 p
#1800
0!
0"
#1810
1!
1"
b11101 p
#1811
b11110000 $
b11110000 5
b100 %
b100 6
b101 &
b101 7
b101 '
b101 8
b11 (
b11 9
1)
1:
1^
b11 ]
b101 \
b101 [
b100 Z
b11110000 Y
b1111 n
b1010 k
b1001 o
b111 l
b11110000 q
b1110 j
b1000 z
#1820
0!
0"
#1830
1!
1"
b11110000 F
b100 G
b101 H
b101 I
b11 J
1K
b11110 p
1x
#1840
0!
0"
#1850
1!
1"
b11111 p
#1851
b10100 $
b10100 5
b110 &
b110 7
b100 '
b100 8
b1 (
b1 9
b1 ]
b100 \
b110 [
b10100 Y
b1011 k
b10100 q
b1001 z
#1860
0!
0"
#1870
1!
1"
b10100 F
b110 H
b100 I
b1 J
b0 p
1r
#1880
0!
0"
#1890
1!
1"
b11 i
b1 p
0r
b1000 z
b11 e
b11 0
#1891
b1100101 $
b1100101 5
b10 %
b10 6
b101 &
b101 7
b110 '
b110 8
b110 \
b101 [
b10 Z
b1100101 Y
b1110 n
b1000 k
b111 o
b101 l
b1100101 q
b1101 j
b101 z
#1900
0!
0"
#1910
1!
1"
b1100101 F
b10 G
b101 H
b110 I
b11 R
b11 A
b10 p
#1920
0!
0"
#1930
1!
1"
b11 p
#1931
b11100011 $
b11100011 5
b10 &
b10 7
b10 '
b10 8
b10 \
b10 [
b11100011 Y
b111 n
b101 k
b11100011 q
b110 j
b10 z
#1940
0!
0"
#1950
1!
1"
b11100011 F
b10 H
b10 I
b100 p
#1960
0!
0"
#1970
1!
1"
b101 p
#1971
b10001111 $
b10001111 5
b110 %
b110 6
b100 &
b100 7
b101 '
b101 8
b101 \
b100 [
b110 Z
b10001111 Y
b10000 n
b1011 k
b1011 o
b1001 l
b10001111 q
b1111 j
b1000 z
#1980
0!
0"
#1990
1!
1"
b10001111 F
b110 G
b100 H
b101 I
b110 p
#2000
0!
0"
#2010
1!
1"
b111 p
#2011
b11001100 $
b11001100 5
b101 %
b101 6
b111 &
b111 7
b10 (
b10 9
b10 ]
b111 [
b101 Z
b11001100 Y
b1101 k
b10010 n
b1010 o
b1000 l
b11001100 q
b1010 z
b10001 j
#2020
0!
0"
#2030
1!
1"
b11001100 F
b101 G
b111 H
b10 J
b1000 p
#2040
0!
0"
#2050
1!
1"
b1001 p
#2051
b11111010 $
b11111010 5
b11 %
b11 6
b110 &
b110 7
b1 (
b1 9
b1 ]
b110 [
b11 Z
b11111010 Y
b1010 k
b1111 n
b1000 o
b110 l
b11111010 q
b111 z
b1110 j
#2060
0!
0"
#2070
1!
1"
b11111010 F
b11 G
b110 H
b1 J
b1010 p
#2080
0!
0"
#2090
1!
1"
b1011 p
#2091
b1010100 $
b1010100 5
b101 &
b101 7
b101 [
b1010100 Y
b1001 k
b1110 n
b1010100 q
b110 z
b1101 j
#2100
0!
0"
#2110
1!
1"
b1010100 F
b101 H
b1100 p
#2120
0!
0"
#2130
1!
1"
b1101 p
#2131
b11011100 $
b11011100 5
b100 %
b100 6
b1 &
b1 7
b111 '
b111 8
b111 \
b1 [
b100 Z
b11011100 Y
b1101 n
b110 k
b1001 o
b111 l
b11011100 q
b1100 j
b11 z
#2140
0!
0"
#2150
1!
1"
b11011100 F
b100 G
b1 H
b111 I
b1110 p
#2160
0!
0"
#2170
1!
1"
b1111 p
#2171
b10010001 $
b10010001 5
b111 &
b111 7
b100 '
b100 8
b11 (
b11 9
0)
0:
0^
b11 ]
b100 \
b111 [
b10010001 Y
b10000 n
b1100 k
b10010001 q
b1111 j
b1001 z
#2180
0!
0"
#2190
1!
1"
b10010001 F
b111 H
b100 I
b11 J
0K
b10000 p
0x
1y
1g
12
#2200
0!
0"
#2210
1!
1"
1T
1C
b10001 p
0y
0g
02
#2211
b1110100 $
b1110100 5
b1 %
b1 6
b100 &
b100 7
b101 '
b101 8
b10 (
b10 9
1)
1:
1^
b10 ]
b101 \
b100 [
b1 Z
b1110100 Y
b1011 n
b110 k
b110 o
b100 l
b1110100 q
b1010 j
b11 z
#2220
0!
0"
#2230
1!
1"
b1110100 F
b1 G
b100 H
b101 I
b10 J
1K
0T
0C
b10010 p
1x
#2240
0!
0"
#2250
1!
1"
b10011 p
#2251
b10000100 $
b10000100 5
b110 &
b110 7
b11 '
b11 8
b1 (
b1 9
1+
1<
1`
b1 ]
b11 \
b110 [
b10000100 Y
b1000 k
b10000100 q
b101 z
#2260
0!
0"
#2270
1!
1"
b10000100 F
b110 H
b11 I
b1 J
1M
b10100 p
#2280
0!
0"
#2290
1!
1"
b10101 p
#2291
b11000001 $
b11000001 5
b110 %
b110 6
b101 &
b101 7
b101 '
b101 8
0+
0<
0`
b101 \
b101 [
b110 Z
b11000001 Y
b10001 n
b1100 k
b1011 o
b1001 l
b11000001 q
b10000 j
b1001 z
#2300
0!
0"
#2310
1!
1"
b11000001 F
b110 G
b101 H
b101 I
0M
b10110 p
#2320
0!
0"
#2330
1!
1"
b10111 p
#2331
b101011 $
b101011 5
b10 %
b10 6
b11 &
b11 7
b111 '
b111 8
b10 (
b10 9
b10 ]
b111 \
b11 [
b10 Z
b101011 Y
b1101 n
b110 k
b111 o
b101 l
b101011 q
b1100 j
b11 z
#2340
0!
0"
#2350
1!
1"
b101011 F
b10 G
b11 H
b111 I
b10 J
b11000 p
#2360
0!
0"
#2370
1!
1"
b11001 p
#2371
b11000011 $
b11000011 5
b110 %
b110 6
b100 &
b100 7
b11 '
b11 8
b11 (
b11 9
0*
0;
0_
b11 ]
b11 \
b100 [
b110 Z
b11000011 Y
b1110 n
b1011 k
b1011 o
b1001 l
b11000011 q
b1101 j
b1000 z
#2380
0!
0"
#2390
1!
1"
b11000011 F
b110 G
b100 H
b11 I
b11 J
0L
b11010 p
#2400
0!
0"
#2410
1!
1"
b11011 p
#2411
b10001000 $
b10001000 5
b10 %
b10 6
b100 '
b100 8
b10 (
b10 9
0)
0:
1*
1;
1_
0^
b10 ]
b100 \
b10 Z
b10001000 Y
b1011 n
b111 o
b101 l
b111 k
b10001000 q
b1010 j
b100 z
#2420
0!
0"
#2430
1!
1"
b10001000 F
b10 G
b100 I
b10 J
0K
1L
b11100 p
0x
1y
1g
12
#2440
0!
0"
#2450
1!
1"
1T
1C
b11101 p
0y
0g
02
#2451
b1111010 $
b1111010 5
1)
1:
0*
0;
0_
1^
b1111010 Y
b1111010 q
#2460
0!
0"
#2470
1!
1"
b1111010 F
1K
0L
0T
0C
b11110 p
1x
#2480
0!
0"
#2490
1!
1"
b11111 p
#2491
b10011010 $
b10011010 5
b1 %
b1 6
1*
1;
1_
b1 Z
b10011010 Y
b110 o
b100 l
b110 k
b1010 n
b10011010 q
b1001 j
b11 z
#2500
0!
0"
#2510
1!
1"
b10011010 F
b1 G
1L
b100000 p
#2520
0!
0"
#2530
1!
1"
b100001 p
