can_btu_tb.vcd
$date
    Mar 11, 2026  19:31:07
$end
$version
    TOOL:	xmsim(64)	23.09-s013
$end
$timescale
    1 ns
$end

$scope module tb_can_btu $end
$var reg       1 !    clk $end

$scope module btu_if $end
$var wire      1 "    clk  $end
$var reg       1 #    rst_n $end
$var reg       8 $    prescaler [7:0] $end
$var reg       3 %    prop_seg [2:0] $end
$var reg       3 &    phase_seg1 [2:0] $end
$var reg       3 '    phase_seg2 [2:0] $end
$var reg       2 (    sjw [1:0] $end
$var reg       1 )    can_rx $end
$var reg       1 *    sync_en $end
$var reg       1 +    hard_sync $end
$var reg       1 ,    bit_tick $end
$var reg       1 -    sample_tick $end
$var reg       1 .    tx_tick $end
$var reg       1 /    sample_point $end
$var reg       8 0    bit_time_cnt [7:0] $end
$var reg       1 1    sync_locked $end
$var reg       1 2    edge_detected $end
$var reg       1 3    sync_active $end

$scope clocking drv_cb $end
$var reg       1 4    rst_n $end
$var reg       8 5    prescaler [7:0] $end
$var reg       3 6    prop_seg [2:0] $end
$var reg       3 7    phase_seg1 [2:0] $end
$var reg       3 8    phase_seg2 [2:0] $end
$var reg       2 9    sjw [1:0] $end
$var reg       1 :    can_rx $end
$var reg       1 ;    sync_en $end
$var reg       1 <    hard_sync $end
$var reg       1 =    bit_tick $end
$var reg       1 >    sample_tick $end
$var reg       1 ?    tx_tick $end
$var reg       1 @    sample_point $end
$var reg       8 A    bit_time_cnt [7:0] $end
$var reg       1 B    sync_locked $end
$var reg       1 C    edge_detected $end
$var reg       1 D    sync_active $end
$upscope $end


$scope clocking mon_cb $end
$var reg       1 E    rst_n $end
$var reg       8 F    prescaler [7:0] $end
$var reg       3 G    prop_seg [2:0] $end
$var reg       3 H    phase_seg1 [2:0] $end
$var reg       3 I    phase_seg2 [2:0] $end
$var reg       2 J    sjw [1:0] $end
$var reg       1 K    can_rx $end
$var reg       1 L    sync_en $end
$var reg       1 M    hard_sync $end
$var reg       1 N    bit_tick $end
$var reg       1 O    sample_tick $end
$var reg       1 P    tx_tick $end
$var reg       1 Q    sample_point $end
$var reg       8 R    bit_time_cnt [7:0] $end
$var reg       1 S    sync_locked $end
$var reg       1 T    edge_detected $end
$var reg       1 U    sync_active $end
$upscope $end

$upscope $end


$scope module DUT $end
$var parameter 32 V    CLK_FREQ_HZ $end
$var parameter 32 W    BAUD_RATE $end
$var wire      1 "    clk  $end
$var wire      1 X    rst_n  $end
$var wire      8 Y    prescaler [7:0] $end
$var wire      3 Z    prop_seg [2:0] $end
$var wire      3 [    phase_seg1 [2:0] $end
$var wire      3 \    phase_seg2 [2:0] $end
$var wire      2 ]    sjw [1:0] $end
$var wire      1 ^    can_rx  $end
$var wire      1 _    sync_en  $end
$var wire      1 `    hard_sync  $end
$var reg       1 a    bit_tick $end
$var reg       1 b    sample_tick $end
$var reg       1 c    tx_tick $end
$var reg       1 d    sample_point $end
$var reg       8 e    bit_time_cnt [7:0] $end
$var reg       1 f    sync_locked $end
$var reg       1 g    edge_detected $end
$var reg       1 h    sync_active $end
$var reg       8 i    tq_counter [7:0] $end
$var reg       5 j    tq_limit [4:0] $end
$var reg       5 k    sample_tq_base [4:0] $end
$var reg       5 l    sample_tq_adj [4:0] $end
$var reg       5 m    tx_tq [4:0] $end
$var reg       5 n    total_tq_base [4:0] $end
$var reg       5 o    total_tq_adj [4:0] $end
$var reg       8 p    presc_counter [7:0] $end
$var reg       8 q    prescaler_safe [7:0] $end
$var reg       1 r    presc_tick $end
$var reg       2 s    sync_state [1:0] $end
$var reg       4 t    phase_seg1_adj [3:0] $end
$var reg       4 u    phase_seg2_adj [3:0] $end
$var reg       1 v    sync_done $end
$var reg       1 w    phase_adjusted $end
$var reg       1 x    prev_bus_value $end
$var reg       1 y    edge_detected_int $end
$var reg       4 z    phase_error [3:0] $end
$upscope $end

$upscope $end

$enddefinitions $end
$dumpvars
b1111010000100100000 W
b10111110101111000010000000 V
0!
0"
0#
b100 $
b10 %
b100 &
b100 '
b10 (
1)
1*
0+
0,
0-
0.
0/
b0 0
01
02
03
x4
bx 5
bx 6
bx 7
bx 8
bx 9
x:
x;
x<
x=
x>
x?
x@
bx A
xB
xC
xD
xE
bx F
bx G
bx H
bx I
bx J
xK
xL
xM
xN
xO
xP
xQ
bx R
xS
xT
xU
0X
b100 Y
b10 Z
b100 [
b100 \
b10 ]
1^
1_
0`
0a
0b
0c
0d
b0 e
0f
0g
0h
b0 i
b1010 j
b111 k
b111 l
b1 m
b1011 n
b1011 o
b0 p
b100 q
0r
b0 s
b100 t
b100 u
0v
0w
1x
0y
b111 z
$end
#10
1!
1"
0E
b100 F
b10 G
b100 H
b100 I
b10 J
1K
1L
0M
0N
0O
0P
0Q
b0 R
0S
0T
0U
0=
0>
0?
0@
b0 A
0B
0C
0D
#11
b10101101 $
b10101101 5
b1 %
b1 6
b11 &
b11 7
b10 '
b10 8
b10 9
1:
1;
0<
b10 \
b11 [
b1 Z
b10101101 Y
b111 n
b101 k
b1010 o
b110 l
b10101101 q
b110 j
b101 z
#20
0!
0"
#30
1!
1"
b10101101 F
b1 G
b11 H
b10 I
b11 t
b10 u
b101 l
b111 o
#40
0!
0"
#50
1#
1!
1"
1X
b1 p
#51
b11011011 $
b11011011 5
b10 %
b10 6
b110 '
b110 8
0)
0:
0^
b110 \
b10 Z
b11011011 Y
b1100 n
b1000 o
b110 l
b110 k
b11011011 q
b1011 j
b110 z
#60
0!
0"
#70
1!
1"
1E
b11011011 F
b10 G
b110 I
0K
b10 p
0x
1y
1g
12
#80
0!
0"
#90
1!
1"
1T
1C
b1 s
1h
b11 p
0y
0g
02
13
#91
b110101 $
b110101 5
b101 %
b101 6
b111 '
b111 8
b11 (
b11 9
1)
1:
1^
b11 ]
b111 \
b101 Z
b110101 Y
b10000 n
b1011 o
b1001 l
b1001 k
b110101 q
b1111 j
b1001 z
#100
0!
0"
#110
1!
1"
b110101 F
b101 G
b111 I
b11 J
1K
0T
1U
0C
1D
b110 t
b111 u
1w
b10 s
b100 p
1x
b1100 l
b10011 o
b10010 j
#120
0!
0"
#130
1!
1"
1v
b11 s
b101 p
#131
b10111101 $
b10111101 5
b11 %
b11 6
b101 &
b101 7
b100 '
b100 8
b10 (
b10 9
b10 ]
b100 \
b101 [
b11 Z
b10111101 Y
b1101 n
b10001 o
b1010 l
b10111101 q
b10000 j
#140
0!
0"
#150
1!
1"
b10111101 F
b11 G
b101 H
b100 I
b10 J
1f
0h
b110 p
03
11
#160
0!
0"
#170
1!
1"
1S
0U
1B
0D
b111 p
#171
b1110010 $
b1110010 5
b100 &
b100 7
b1 (
b1 9
b1 ]
b100 [
b1110010 Y
b1000 k
b1100 n
b1110010 q
b1000 z
#180
0!
0"
#190
1!
1"
b1110010 F
b100 H
b1 J
b1000 p
#200
0!
0"
#210
1!
1"
b1001 p
#211
b1010101 $
b1010101 5
b100 %
b100 6
b110 &
b110 7
b11 '
b11 8
b10 (
b10 9
0)
0:
0^
b10 ]
b11 \
b110 [
b100 Z
b1010101 Y
b1110 n
b1011 k
b10010 o
b1011 l
b1010101 q
b10001 j
b1011 z
#220
0!
0"
#230
1!
1"
b1010101 F
b100 G
b110 H
b11 I
b10 J
0K
b1010 p
0x
1y
1g
12
#240
0!
0"
#250
1!
1"
1T
1C
b1011 p
0y
0g
02
#251
b1100101 $
b1100101 5
b10 &
b10 7
b10 '
b10 8
b10 \
b10 [
b1100101 Y
b1001 n
b111 k
b1100101 q
b111 z
#260
0!
0"
#270
1!
1"
b1100101 F
b10 H
b10 I
0T
0C
b1100 p
#280
0!
0"
#290
1!
1"
b1101 p
#291
b10100010 $
b10100010 5
b1 %
b1 6
b100 '
b100 8
1)
1:
1^
b100 \
b1 Z
b10100010 Y
b1000 n
b1111 o
b1000 l
b100 k
b10100010 q
b1110 j
b100 z
#300
0!
0"
#310
1!
1"
b10100010 F
b1 G
b100 I
1K
b1110 p
1x
#320
0!
0"
#330
1!
1"
b1111 p
#331
b1100 $
b1100 5
b101 %
b101 6
b110 &
b110 7
b11 (
b11 9
b11 ]
b110 [
b101 Z
b1100 Y
b1100 k
b10000 n
b10011 o
b1100 l
b1100 q
b1100 z
b10010 j
#340
0!
0"
#350
1!
1"
b1100 F
b101 G
b110 H
b11 J
b0 p
1r
#360
0!
0"
#370
1!
1"
b100 u
0v
0w
b0 s
b1 i
1a
b1 p
0r
b10000 o
b1111 j
b1011 z
b1 e
b1 0
1,
#371
b10100100 $
b10100100 5
b10 %
b10 6
b1 &
b1 7
b11 '
b11 8
b1 (
b1 9
b1 ]
b11 \
b1 [
b10 Z
b10100100 Y
b111 n
b100 k
b1101 o
b1001 l
b10100100 q
b110 j
b11 z
#380
0!
0"
#390
1!
1"
b10100100 F
b10 G
b1 H
b11 I
b1 J
1N
b1 R
1=
b1 A
0a
b10 p
0,
#400
0!
0"
#410
1!
1"
0N
0=
b11 p
#411
b1101001 $
b1101001 5
b111 %
b111 6
b110 &
b110 7
b110 '
b110 8
b110 \
b110 [
b111 Z
b1101001 Y
b10100 n
b1110 k
b10010 o
b1110 l
b1101001 q
b10011 j
b1101 z
#420
0!
0"
#430
1!
1"
b1101001 F
b111 G
b110 H
b110 I
b100 p
#440
0!
0"
#450
1!
1"
b101 p
#451
b1011011 $
b1011011 5
b10 %
b10 6
b101 '
b101 8
b101 \
b10 Z
b1011011 Y
b1110 n
b1101 o
b1001 l
b1001 k
b1011011 q
b1101 j
b1000 z
#460
0!
0"
#470
1!
1"
b1011011 F
b10 G
b101 I
b110 p
#480
0!
0"
#490
1!
1"
b111 p
#491
b1111011 $
b1111011 5
b111 %
b111 6
b11 &
b11 7
b100 '
b100 8
b10 (
b10 9
0)
0:
0^
b10 ]
b100 \
b11 [
b111 Z
b1111011 Y
b1111 n
b1011 k
b10010 o
b1110 l
b1111011 q
b1110 j
b1010 z
#500
0!
0"
#510
1!
1"
b1111011 F
b111 G
b11 H
b100 I
b10 J
0K
b1000 p
0x
1y
1g
12
#520
0!
0"
#530
1!
1"
1T
1C
b1 s
1h
b1001 p
0y
0g
02
13
#531
b11000111 $
b11000111 5
b10 %
b10 6
b10 &
b10 7
b101 '
b101 8
b1 (
b1 9
1)
1:
1^
b1 ]
b101 \
b10 [
b10 Z
b11000111 Y
b1010 n
b101 k
b1101 o
b1001 l
b11000111 q
b1001 j
b100 z
#540
0!
0"
#550
1!
1"
b11000111 F
b10 G
b10 H
b101 I
b1 J
1K
0T
1U
0C
1D
b11 t
b101 u
1w
b10 s
b1010 p
1x
b110 l
b1011 o
b1010 j
#560
0!
0"
#570
1!
1"
1v
b11 s
b1011 p
#571
b1000010 $
b1000010 5
b111 %
b111 6
b111 &
b111 7
b10 (
b10 9
0)
0:
0^
b10 ]
b111 [
b111 Z
b1000010 Y
b1111 k
b10100 n
b10000 o
b1011 l
b1000010 q
b1110 z
b1111 j
#580
0!
0"
#590
1!
1"
b1000010 F
b111 G
b111 H
b10 J
0K
0h
b1100 p
0x
1y
1g
12
03
#600
0!
0"
#610
1!
1"
1T
0U
1C
0D
b1101 p
0y
0g
02
#611
b11101001 $
b11101001 5
b1 %
b1 6
b11 &
b11 7
b11 '
b11 8
1)
1:
1^
b11 \
b11 [
b1 Z
b11101001 Y
b1000 n
b101 k
b1010 o
b101 l
b11101001 q
b1001 j
b100 z
#620
0!
0"
#630
1!
1"
b11101001 F
b1 G
b11 H
b11 I
1K
0T
0C
b1110 p
1x
#640
0!
0"
#650
1!
1"
b1111 p
#651
b10111110 $
b10111110 5
b110 %
b110 6
b101 &
b101 7
b100 '
b100 8
b11 (
b11 9
b11 ]
b100 \
b101 [
b110 Z
b10111110 Y
b10000 n
b1100 k
b1111 o
b1010 l
b10111110 q
b1110 j
b1011 z
#660
0!
0"
#670
1!
1"
b10111110 F
b110 G
b101 H
b100 I
b11 J
b10000 p
#680
0!
0"
#690
1!
1"
b10001 p
#691
b11000000 $
b11000000 5
b11 %
b11 6
b100 &
b100 7
b10 (
b10 9
b10 ]
b100 [
b11 Z
b11000000 Y
b1000 k
b1100 n
b1100 o
b111 l
b11000000 q
b111 z
b1011 j
#700
0!
0"
#710
1!
1"
b11000000 F
b11 G
b100 H
b10 J
b10010 p
#720
0!
0"
#730
1!
1"
b10011 p
#731
b11101111 $
b11101111 5
b101 %
b101 6
b111 &
b111 7
b110 '
b110 8
b11 (
b11 9
b11 ]
b110 \
b111 [
b101 Z
b11101111 Y
b10011 n
b1101 k
b1110 o
b1001 l
b11101111 q
b1101 j
b1100 z
#740
0!
0"
#750
1!
1"
b11101111 F
b101 G
b111 H
b110 I
b11 J
b10100 p
#760
0!
0"
#770
1!
1"
b10101 p
#771
b1001100 $
b1001100 5
b11 &
b11 7
b11 '
b11 8
b1 (
b1 9
0)
0:
1+
1<
1`
0^
b1 ]
b11 \
b11 [
b1001100 Y
b1100 n
b1001 k
b1001100 q
b1000 z
#780
0!
0"
#790
1!
1"
b1001100 F
b11 H
b11 I
b1 J
0K
1M
b10110 p
0x
1y
1g
12
#800
0!
0"
#810
1!
1"
1T
1C
b10111 p
0y
0g
02
#811
b11010110 $
b11010110 5
b11 %
b11 6
b110 '
b110 8
b10 (
b10 9
0+
0<
0`
b10 ]
b110 \
b11 Z
b11010110 Y
b1101 n
b1100 o
b111 l
b111 k
b11010110 q
b1011 j
b110 z
#820
0!
0"
#830
1!
1"
b11010110 F
b11 G
b110 I
b10 J
0M
0T
0C
b11000 p
#840
0!
0"
#850
1!
1"
b11001 p
#851
b10001101 $
b10001101 5
b100 %
b100 6
b1 (
b1 9
1)
1:
1^
b1 ]
b100 Z
b10001101 Y
b1101 o
b1000 l
b1000 k
b1110 n
b10001101 q
b1100 j
b111 z
#860
0!
0"
#870
1!
1"
b10001101 F
b100 G
b1 J
1K
b11010 p
1x
#880
0!
0"
#890
1!
1"
b11011 p
#891
b1110010 $
b1110010 5
b1 %
b1 6
b101 '
b101 8
b101 \
b1 Z
b1110010 Y
b1010 n
b1010 o
b101 l
b101 k
b1110010 q
b1001 j
b100 z
#900
0!
0"
#910
1!
1"
b1110010 F
b1 G
b101 I
b11100 p
#920
0!
0"
#930
1!
1"
b11101 p
#931
b10000100 $
b10000100 5
b100 &
b100 7
b111 '
b111 8
b111 \
b100 [
b10000100 Y
b1101 n
b110 k
b10000100 q
b101 z
#940
0!
0"
#950
1!
1"
b10000100 F
b100 H
b111 I
b11110 p
#960
0!
0"
#970
1!
1"
b11111 p
#971
b11000011 $
b11000011 5
b110 %
b110 6
b11 &
b11 7
b100 '
b100 8
b11 (
b11 9
b11 ]
b100 \
b11 [
b110 Z
b11000011 Y
b1110 n
b1010 k
b1111 o
b1010 l
b11000011 q
b1110 j
b1001 z
#980
0!
0"
#990
1!
1"
b11000011 F
b110 G
b11 H
b100 I
b11 J
b100000 p
#1000
0!
0"
#1010
1!
1"
b100001 p
#1011
b101111 $
b101111 5
b10 %
b10 6
b11 '
b11 8
1+
1<
1`
b11 \
b10 Z
b101111 Y
b1001 n
b1011 o
b110 l
b110 k
b101111 q
b1010 j
b101 z
#1020
0!
0"
#1030
1!
1"
b101111 F
b10 G
b11 I
1M
b100010 p
#1040
0!
0"
#1050
1!
1"
b100011 p
#1051
b11001001 $
b11001001 5
b111 %
b111 6
b111 &
b111 7
b10 '
b10 8
b1 (
b1 9
b1 ]
b10 \
b111 [
b111 Z
b11001001 Y
b10001 n
b1111 k
b10000 o
b1011 l
b11001001 q
b1111 j
b1110 z
#1060
0!
0"
#1070
1!
1"
b11001001 F
b111 G
b111 H
b10 I
b1 J
b100100 p
#1080
0!
0"
#1090
1!
1"
b100101 p
#1091
b10010000 $
b10010000 5
b11 %
b11 6
b110 &
b110 7
b11 '
b11 8
0+
0<
0`
b11 \
b110 [
b11 Z
b10010000 Y
b1101 n
b1010 k
b1100 o
b111 l
b10010000 q
b1011 j
b1001 z
#1100
0!
0"
#1110
1!
1"
b10010000 F
b11 G
b110 H
b11 I
0M
b100110 p
#1120
0!
0"
#1130
1!
1"
b100111 p
#1131
b10000101 $
b10000101 5
b100 %
b100 6
b100 &
b100 7
b101 '
b101 8
b11 (
b11 9
b11 ]
b101 \
b100 [
b100 Z
b10000101 Y
b1110 n
b1001 k
b1101 o
b1000 l
b10000101 q
b1100 j
b1000 z
#1140
0!
0"
#1150
1!
1"
b10000101 F
b100 G
b100 H
b101 I
b11 J
b101000 p
#1160
0!
0"
#1170
1!
1"
b101001 p
#1171
b10100110 $
b10100110 5
b11 %
b11 6
b11 '
b11 8
b10 (
b10 9
0*
0;
0_
b10 ]
b11 \
b11 Z
b10100110 Y
b1011 n
b1100 o
b111 l
b1000 k
b10100110 q
b1011 j
b111 z
#1180
0!
0"
#1190
1!
1"
b10100110 F
b11 G
b11 I
b10 J
0L
b101010 p
#1200
0!
0"
#1210
1!
1"
b101011 p
#1211
b11110101 $
b11110101 5
b1 %
b1 6
b101 &
b101 7
b101 '
b101 8
b11 (
b11 9
1*
1;
1_
b11 ]
b101 \
b101 [
b1 Z
b11110101 Y
b1100 n
b111 k
b1010 o
b101 l
b11110101 q
b1001 j
b110 z
#1220
0!
0"
#1230
1!
1"
b11110101 F
b1 G
b101 H
b101 I
b11 J
1L
b101100 p
#1240
0!
0"
#1250
1!
1"
b101101 p
#1251
b1110010 $
b1110010 5
b110 %
b110 6
b10 &
b10 7
b100 '
b100 8
b10 (
b10 9
b10 ]
b100 \
b10 [
b110 Z
b1110010 Y
b1101 n
b1001 k
b1111 o
b1010 l
b1110010 q
b1110 j
b1000 z
#1260
0!
0"
#1270
1!
1"
b1110010 F
b110 G
b10 H
b100 I
b10 J
b101110 p
#1280
0!
0"
#1290
1!
1"
b101111 p
#1291
b11011 $
b11011 5
b111 %
b111 6
b101 &
b101 7
b101 '
b101 8
0)
0:
0^
b101 \
b101 [
b111 Z
b11011 Y
b10010 n
b1101 k
b10000 o
b1011 l
b11011 q
b1111 j
b1100 z
#1300
0!
0"
#1310
1!
1"
b11011 F
b111 G
b101 H
b101 I
0K
b0 p
1r
0x
1y
1g
12
#1320
0!
0"
#1330
1!
1"
1T
1C
1c
b10 i
b1 p
0r
0y
b1011 z
b10 e
0g
02
b10 0
1.
#1331
b11110010 $
b11110010 5
b11 %
b11 6
b110 &
b110 7
b111 '
b111 8
1)
1:
1+
1<
1`
1^
b111 \
b110 [
b11 Z
b11110010 Y
b10001 n
b1010 k
b1100 o
b111 l
b11110010 q
b1011 j
b1000 z
#1340
0!
0"
#1350
1!
1"
b11110010 F
b11 G
b110 H
b111 I
1K
1M
1P
b10 R
0T
1?
b10 A
0C
0c
b10 p
1x
0.
#1360
0!
0"
#1370
1!
1"
0P
0?
b11 p
#1371
b11110110 $
b11110110 5
b100 &
b100 7
b110 '
b110 8
b1 (
b1 9
0+
0<
0`
b1 ]
b110 \
b100 [
b11110110 Y
b1110 n
b1000 k
b11110110 q
b110 z
#1380
0!
0"
#1390
1!
1"
b11110110 F
b100 H
b110 I
b1 J
0M
b100 p
#1400
0!
0"
#1410
1!
1"
b101 p
#1411
b101000 $
b101000 5
b10 %
b10 6
b11 &
b11 7
b111 '
b111 8
b10 (
b10 9
0)
0:
0^
b10 ]
b111 \
b11 [
b10 Z
b101000 Y
b1101 n
b110 k
b1011 o
b110 l
b101000 q
b1010 j
b100 z
#1420
0!
0"
#1430
1!
1"
b101000 F
b10 G
b11 H
b111 I
b10 J
0K
b110 p
0x
1y
1g
12
#1440
0!
0"
#1450
1!
1"
1T
1C
b111 p
0y
0g
02
#1451
b10000111 $
b10000111 5
b110 %
b110 6
b11 '
b11 8
1)
1:
1^
b11 \
b110 Z
b10000111 Y
b1111 o
b1010 l
b1010 k
b10000111 q
b1110 j
b1000 z
#1460
0!
0"
#1470
1!
1"
b10000111 F
b110 G
b11 I
1K
0T
0C
b1000 p
1x
#1480
0!
0"
#1490
1!
1"
b1001 p
#1491
b10011 $
b10011 5
b100 %
b100 6
b10 &
b10 7
b1 (
b1 9
b1 ]
b10 [
b100 Z
b10011 Y
b111 k
b1010 n
b1101 o
b1000 l
b10011 q
b101 z
b1100 j
#1500
0!
0"
#1510
1!
1"
b10011 F
b100 G
b10 H
b1 J
b1010 p
#1520
0!
0"
#1530
1!
1"
b1011 p
#1531
b11001100 $
b11001100 5
b101 %
b101 6
b110 &
b110 7
b111 '
b111 8
b11 (
b11 9
0)
0:
0^
b11 ]
b111 \
b110 [
b101 Z
b11001100 Y
b10011 n
b1100 k
b1110 o
b1001 l
b11001100 q
b1101 j
b1010 z
#1540
0!
0"
#1550
1!
1"
b11001100 F
b101 G
b110 H
b111 I
b11 J
0K
b1100 p
0x
1y
1g
12
#1560
0!
0"
#1570
1!
1"
1T
1C
b1101 p
0y
0g
02
#1571
b10110011 $
b10110011 5
b11 %
b11 6
b10 &
b10 7
b100 '
b100 8
b1 (
b1 9
1)
1:
1^
b1 ]
b100 \
b10 [
b11 Z
b10110011 Y
b1010 n
b110 k
b1100 o
b111 l
b10110011 q
b1011 j
b100 z
#1580
0!
0"
#1590
1!
1"
b10110011 F
b11 G
b10 H
b100 I
b1 J
1K
0T
0C
b1110 p
1x
#1600
0!
0"
#1610
1!
1"
b1111 p
#1611
b11000111 $
b11000111 5
b110 %
b110 6
b101 &
b101 7
b11 '
b11 8
b10 (
b10 9
0)
0:
0^
b10 ]
b11 \
b101 [
b110 Z
b11000111 Y
b1111 n
b1100 k
b1111 o
b1010 l
b11000111 q
b1110 j
b1010 z
#1620
0!
0"
#1630
1!
1"
b11000111 F
b110 G
b101 H
b11 I
b10 J
0K
b10000 p
0x
1y
1g
12
#1640
0!
0"
#1650
1!
1"
1T
1C
b10001 p
0y
0g
02
#1651
b1000 $
b1000 5
b1 %
b1 6
b101 '
b101 8
b11 (
b11 9
1)
1:
0*
0;
0_
1^
b11 ]
b101 \
b1 Z
b1000 Y
b1100 n
b1010 o
b101 l
b111 k
b1000 q
b1001 j
b101 z
#1660
0!
0"
#1670
1!
1"
b1000 F
b1 G
b101 I
b11 J
1K
0L
0T
0C
b0 p
1r
1x
#1680
0!
0"
#1690
1!
1"
b11 i
b1 p
0r
b100 z
b11 e
b11 0
#1691
b1110110 $
b1110110 5
b101 %
b101 6
b111 &
b111 7
b110 '
b110 8
b10 (
b10 9
1*
1;
1_
b10 ]
b110 \
b111 [
b101 Z
b1110110 Y
b10011 n
b1101 k
b1110 o
b1001 l
b1110110 q
b1101 j
b1010 z
#1700
0!
0"
#1710
1!
1"
b1110110 F
b101 G
b111 H
b110 I
b10 J
1L
b11 R
b11 A
b10 p
#1720
0!
0"
#1730
1!
1"
b11 p
#1731
b10010 $
b10010 5
b10 %
b10 6
b11 '
b11 8
b1 (
b1 9
b1 ]
b11 \
b10 Z
b10010 Y
b1101 n
b1011 o
b110 l
b1010 k
b10010 q
b1010 j
b111 z
#1740
0!
0"
#1750
1!
1"
b10010 F
b10 G
b11 I
b1 J
b100 p
#1760
0!
0"
#1770
1!
1"
b101 p
#1771
b11011011 $
b11011011 5
b11 %
b11 6
b101 &
b101 7
b111 '
b111 8
b11 (
b11 9
b11 ]
b111 \
b101 [
b11 Z
b11011011 Y
b10000 n
b1001 k
b1100 o
b111 l
b11011011 q
b1011 j
b110 z
#1780
0!
0"
#1790
1!
1"
b11011011 F
b11 G
b101 H
b111 I
b11 J
b110 p
#1800
0!
0"
#1810
1!
1"
b111 p
#1811
b11010010 $
b11010010 5
b111 %
b111 6
b10 &
b10 7
b10 (
b10 9
b10 ]
b10 [
b111 Z
b11010010 Y
b1010 k
b10001 n
b10000 o
b1011 l
b11010010 q
b111 z
b1111 j
#1820
0!
0"
#1830
1!
1"
b11010010 F
b111 G
b10 H
b10 J
b1000 p
#1840
0!
0"
#1850
1!
1"
b1001 p
#1851
b11110110 $
b11110110 5
b110 %
b110 6
b11 &
b11 7
b100 '
b100 8
1+
1<
1`
b100 \
b11 [
b110 Z
b11110110 Y
b1110 n
b1111 o
b1010 l
b11110110 q
b1110 j
#1860
0!
0"
#1870
1!
1"
b11110110 F
b110 G
b11 H
b100 I
1M
b1010 p
#1880
0!
0"
#1890
1!
1"
b1011 p
#1891
b1000111 $
b1000111 5
b100 %
b100 6
b10 &
b10 7
b110 '
b110 8
0+
0<
0`
b110 \
b10 [
b100 Z
b1000111 Y
b1101 n
b111 k
b1101 o
b1000 l
b1000111 q
b1100 j
b100 z
#1900
0!
0"
#1910
1!
1"
b1000111 F
b100 G
b10 H
b110 I
0M
b1100 p
#1920
0!
0"
#1930
1!
1"
b1101 p
#1931
b11000101 $
b11000101 5
b111 %
b111 6
b111 &
b111 7
b10 '
b10 8
1+
1<
1`
b10 \
b111 [
b111 Z
b11000101 Y
b10001 n
b1111 k
b10000 o
b1011 l
b11000101 q
b1111 j
b1100 z
#1940
0!
0"
#1950
1!
1"
b11000101 F
b111 G
b111 H
b10 I
1M
b1110 p
#1960
0!
0"
#1970
1!
1"
b1111 p
#1971
b1110001 $
b1110001 5
b100 %
b100 6
b10 &
b10 7
b11 '
b11 8
0+
0<
0`
b11 \
b10 [
b100 Z
b1110001 Y
b1010 n
b111 k
b1101 o
b1000 l
b1110001 q
b1100 j
b100 z
#1980
0!
0"
#1990
1!
1"
b1110001 F
b100 G
b10 H
b11 I
0M
b10000 p
#2000
0!
0"
#2010
1!
1"
b10001 p
#2011
b10101110 $
b10101110 5
b11 %
b11 6
b100 &
b100 7
b101 '
b101 8
b11 (
b11 9
b11 ]
b101 \
b100 [
b11 Z
b10101110 Y
b1101 n
b1000 k
b1100 o
b111 l
b10101110 q
b1011 j
b101 z
#2020
0!
0"
#2030
1!
1"
b10101110 F
b11 G
b100 H
b101 I
b11 J
b10010 p
#2040
0!
0"
#2050
1!
1"
b10011 p
#2051
b11011100 $
b11011100 5
b1 %
b1 6
b11 &
b11 7
b10 (
b10 9
b10 ]
b11 [
b1 Z
b11011100 Y
b101 k
b1010 n
b1010 o
b101 l
b11011100 q
b10 z
b1001 j
#2060
0!
0"
#2070
1!
1"
b11011100 F
b1 G
b11 H
b10 J
b10100 p
#2080
0!
0"
#2090
1!
1"
b10101 p
#2091
b110110 $
b110110 5
b101 %
b101 6
b101 &
b101 7
b100 '
b100 8
b1 (
b1 9
0*
0;
0_
b1 ]
b100 \
b101 [
b101 Z
b110110 Y
b1111 n
b1011 k
b1110 o
b1001 l
b110110 q
b1101 j
b1000 z
#2100
0!
0"
#2110
1!
1"
b110110 F
b101 G
b101 H
b100 I
b1 J
0L
b10110 p
#2120
0!
0"
#2130
1!
1"
b10111 p
#2131
b10111110 $
b10111110 5
b11 %
b11 6
b110 &
b110 7
1*
1;
1_
b110 [
b11 Z
b10111110 Y
b1010 k
b1110 n
b1100 o
b111 l
b10111110 q
b111 z
b1011 j
#2140
0!
0"
#2150
1!
1"
b10111110 F
b11 G
b110 H
1L
b11000 p
#2160
0!
0"
#2170
1!
1"
b11001 p
#2171
b1110011 $
b1110011 5
b100 &
b100 7
b11 '
b11 8
b11 \
b100 [
b1110011 Y
b1011 n
b1000 k
b1110011 q
b101 z
#2180
0!
0"
#2190
1!
1"
b1110011 F
b100 H
b11 I
b11010 p
#2200
0!
0"
#2210
1!
1"
b11011 p
#2211
b1010110 $
b1010110 5
b100 %
b100 6
b10 &
b10 7
b110 '
b110 8
b10 (
b10 9
0*
0;
0_
b10 ]
b110 \
b10 [
b100 Z
b1010110 Y
b1101 n
b111 k
b1101 o
b1000 l
b1010110 q
b1100 j
b100 z
#2220
0!
0"
#2230
1!
1"
b1010110 F
b100 G
b10 H
b110 I
b10 J
0L
b11100 p
#2240
0!
0"
#2250
1!
1"
b11101 p
#2251
b1100110 $
b1100110 5
b11 %
b11 6
b11 &
b11 7
b101 '
b101 8
1*
1;
1+
1<
1`
1_
b101 \
b11 [
b11 Z
b1100110 Y
b1100 n
b1100 o
b111 l
b1100110 q
b1011 j
#2260
0!
0"
#2270
1!
1"
b1100110 F
b11 G
b11 H
b101 I
1L
1M
b11110 p
#2280
0!
0"
#2290
1!
1"
b11111 p
#2291
b10100011 $
b10100011 5
b100 %
b100 6
b1 &
b1 7
b10 '
b10 8
b1 (
b1 9
0+
0<
0`
b1 ]
b10 \
b1 [
b100 Z
b10100011 Y
b1000 n
b110 k
b1101 o
b1000 l
b10100011 q
b1100 j
b11 z
#2300
0!
0"
#2310
1!
1"
b10100011 F
b100 G
b1 H
b10 I
b1 J
0M
b100000 p
#2320
0!
0"
#2330
1!
1"
b100001 p
#2331
b1101 $
b1101 5
b111 %
b111 6
b10 &
b10 7
b100 '
b100 8
b100 \
b10 [
b111 Z
b1101 Y
b1110 n
b1010 k
b10000 o
b1011 l
b1101 q
b1111 j
b111 z
#2340
0!
0"
#2350
1!
1"
b1101 F
b111 G
b10 H
b100 I
b0 p
1r
#2360
0!
0"
#2370
1!
1"
b100 i
b1 p
0r
b110 z
b100 e
b100 0
#2371
b10100101 $
b10100101 5
b10 %
b10 6
b11 &
b11 7
b11 [
b10 Z
b10100101 Y
b110 k
b1010 n
b1011 o
b110 l
b10100101 q
b10 z
b1010 j
#2380
0!
0"
#2390
1!
1"
b10100101 F
b10 G
b11 H
b100 R
b100 A
b10 p
#2400
0!
0"
#2410
1!
1"
b11 p
#2411
b1101010 $
b1101010 5
b111 %
b111 6
b101 &
b101 7
b101 '
b101 8
b10 (
b10 9
b10 ]
b101 \
b101 [
b111 Z
b1101010 Y
b10010 n
b1101 k
b10000 o
b1011 l
b1101010 q
b1111 j
b1001 z
#2420
0!
0"
#2430
1!
1"
b1101010 F
b111 G
b101 H
b101 I
b10 J
b100 p
#2440
0!
0"
#2450
1!
1"
b101 p
