rpt/rpt_gt_lvl-26-03-26/can_btu_tb.vcd
$date
    Mar 26, 2026  18:57:18
$end
$version
    TOOL:	xmsim(64)	23.09-s013
$end
$timescale
    1 ns
$end

$scope module tb_can_btu $end
$var reg       1 !    clk $end

$scope module btu_if $end
$var wire      1 "    clk  $end
$var reg       1 #    rst_n $end
$var reg       8 $    prescaler [7:0] $end
$var reg       3 %    prop_seg [2:0] $end
$var reg       3 &    phase_seg1 [2:0] $end
$var reg       3 '    phase_seg2 [2:0] $end
$var reg       2 (    sjw [1:0] $end
$var reg       1 )    can_rx $end
$var reg       1 *    sync_en $end
$var reg       1 +    hard_sync $end
$var reg       1 ,    bit_tick $end
$var reg       1 -    sample_tick $end
$var reg       1 .    tx_tick $end
$var reg       1 /    sample_point $end
$var reg       8 0    bit_time_cnt [7:0] $end
$var reg       1 1    sync_locked $end
$var reg       1 2    edge_detected $end
$var reg       1 3    sync_active $end
$var reg       3 4    fsm_state [2:0] $end

$scope clocking drv_cb $end
$var reg       1 5    rst_n $end
$var reg       8 6    prescaler [7:0] $end
$var reg       3 7    prop_seg [2:0] $end
$var reg       3 8    phase_seg1 [2:0] $end
$var reg       3 9    phase_seg2 [2:0] $end
$var reg       2 :    sjw [1:0] $end
$var reg       1 ;    can_rx $end
$var reg       1 <    sync_en $end
$var reg       1 =    hard_sync $end
$var reg       1 >    bit_tick $end
$var reg       1 ?    sample_tick $end
$var reg       1 @    tx_tick $end
$var reg       1 A    sample_point $end
$var reg       8 B    bit_time_cnt [7:0] $end
$var reg       1 C    sync_locked $end
$var reg       1 D    edge_detected $end
$var reg       1 E    sync_active $end
$var reg       3 F    fsm_state [2:0] $end
$upscope $end


$scope clocking mon_cb $end
$var reg       1 G    rst_n $end
$var reg       8 H    prescaler [7:0] $end
$var reg       3 I    prop_seg [2:0] $end
$var reg       3 J    phase_seg1 [2:0] $end
$var reg       3 K    phase_seg2 [2:0] $end
$var reg       2 L    sjw [1:0] $end
$var reg       1 M    can_rx $end
$var reg       1 N    sync_en $end
$var reg       1 O    hard_sync $end
$var reg       1 P    bit_tick $end
$var reg       1 Q    sample_tick $end
$var reg       1 R    tx_tick $end
$var reg       1 S    sample_point $end
$var reg       8 T    bit_time_cnt [7:0] $end
$var reg       1 U    sync_locked $end
$var reg       1 V    edge_detected $end
$var reg       1 W    sync_active $end
$var reg       3 X    fsm_state [2:0] $end
$upscope $end

$upscope $end


$scope module DUT $end
$var parameter 32 Y    CLK_FREQ_HZ $end
$var parameter 32 Z    BAUD_RATE $end
$var wire      1 "    clk  $end
$var wire      1 [    rst_n  $end
$var wire      8 \    prescaler [7:0] $end
$var wire      3 ]    prop_seg [2:0] $end
$var wire      3 ^    phase_seg1 [2:0] $end
$var wire      3 _    phase_seg2 [2:0] $end
$var wire      2 `    sjw [1:0] $end
$var wire      1 a    can_rx  $end
$var wire      1 b    sync_en  $end
$var wire      1 c    hard_sync  $end
$var reg       1 d    bit_tick $end
$var reg       1 e    sample_tick $end
$var reg       1 f    tx_tick $end
$var reg       1 g    sample_point $end
$var reg       8 h    bit_time_cnt [7:0] $end
$var reg       1 i    sync_locked $end
$var reg       1 j    edge_detected $end
$var reg       1 k    sync_active $end
$var reg       3 l    fsm_state [2:0] $end
$var reg       8 m    tq_counter [7:0] $end
$var reg       5 n    tq_limit [4:0] $end
$var reg       5 o    sample_tq_base [4:0] $end
$var reg       5 p    sample_tq_adj [4:0] $end
$var reg       5 q    tx_tq [4:0] $end
$var reg       5 r    total_tq_base [4:0] $end
$var reg       5 s    total_tq_adj [4:0] $end
$var reg       8 t    presc_counter [7:0] $end
$var reg       8 u    prescaler_safe [7:0] $end
$var reg       1 v    presc_tick $end
$var reg       2 w    sync_state [1:0] $end
$var reg       4 x    phase_seg1_adj [3:0] $end
$var reg       4 y    phase_seg2_adj [3:0] $end
$var reg       1 z    sync_done $end
$var reg       1 {    phase_adjusted $end
$var reg       1 |    prev_bus_value $end
$var reg       1 }    edge_detected_int $end
$var reg       4 ~    phase_error [3:0] $end
$upscope $end

$upscope $end

$enddefinitions $end
$dumpvars
b1111010000100100000 Z
b10111110101111000010000000 Y
0!
0"
0#
b100 $
b10 %
b100 &
b100 '
b10 (
1)
1*
0+
0,
0-
0.
0/
b0 0
01
02
03
b0 4
x5
bx 6
bx 7
bx 8
bx 9
bx :
x;
x<
x=
x>
x?
x@
xA
bx B
xC
xD
xE
bx F
xG
bx H
bx I
bx J
bx K
bx L
xM
xN
xO
xP
xQ
xR
xS
bx T
xU
xV
xW
bx X
0[
b100 \
b10 ]
b100 ^
b100 _
b10 `
1a
1b
0c
0d
0e
0f
0g
b0 h
0i
0j
0k
b0 l
b0 m
b1010 n
b111 o
b111 p
b1 q
b1011 r
b1011 s
b0 t
b100 u
0v
b0 w
b100 x
b100 y
0z
0{
1|
0}
b111 ~
$end
#10
1!
1"
0G
b100 H
b10 I
b100 J
b100 K
b10 L
1M
1N
0O
0P
0Q
0R
0S
b0 T
0U
0V
0W
b0 X
0>
0?
0@
0A
b0 B
0C
0D
0E
b0 F
#11
b11001011 $
b11001011 6
b101 %
b101 7
b110 &
b110 8
b101 '
b101 9
b10 :
1;
1<
0=
b101 _
b110 ^
b101 ]
b11001011 \
b10001 r
b1100 o
b1110 s
b1010 p
b11001011 u
b10000 n
b1100 ~
#20
0!
0"
#30
1!
1"
b11001011 H
b101 I
b110 J
b101 K
b110 x
b101 y
b1100 p
b10001 s
#40
0!
0"
#50
1#
1!
1"
1[
b1 t
#51
b11111001 $
b11111001 6
b11 %
b11 7
b111 '
b111 9
b1 (
b1 :
b1 `
b111 _
b11 ]
b11111001 \
b1111 s
b1010 p
b1010 o
b11111001 u
b1010 ~
#60
0!
0"
#70
1!
1"
1G
b11111001 H
b11 I
b111 K
b1 L
b10 t
#80
0!
0"
#90
1!
1"
b11 t
#91
b1010011 $
b1010011 6
b111 &
b111 8
b100 '
b100 9
b10 (
b10 :
b10 `
b100 _
b111 ^
b1010011 \
b1111 r
b1011 o
b1010011 u
b1110 n
b1011 ~
#100
0!
0"
#110
1!
1"
b1010011 H
b111 J
b100 K
b10 L
b100 t
#120
0!
0"
#130
1!
1"
b101 t
#131
b11011011 $
b11011011 6
b101 %
b101 7
b101 &
b101 8
b101 '
b101 9
b101 _
b101 ^
b101 ]
b11011011 \
b10000 r
b10001 s
b1100 p
b11011011 u
b1111 n
#140
0!
0"
#150
1!
1"
b11011011 H
b101 I
b101 J
b101 K
b110 t
#160
0!
0"
#170
1!
1"
b111 t
#171
b10010000 $
b10010000 6
b110 &
b110 8
b110 '
b110 9
b11 (
b11 :
b11 `
b110 _
b110 ^
b10010000 \
b10010 r
b1100 o
b10010000 u
b10001 n
b1100 ~
#180
0!
0"
#190
1!
1"
b10010000 H
b110 J
b110 K
b11 L
b1000 t
#200
0!
0"
#210
1!
1"
b1001 t
#211
b1110011 $
b1110011 6
b10 %
b10 7
b11 &
b11 8
b100 '
b100 9
b1 (
b1 :
0*
0<
0b
b1 `
b100 _
b11 ^
b10 ]
b1110011 \
b1010 r
b110 o
b1110 s
b1001 p
b1110011 u
b1001 n
b110 ~
#220
0!
0"
#230
1!
1"
b1110011 H
b10 I
b11 J
b100 K
b1 L
0N
b1010 t
#240
0!
0"
#250
1!
1"
b1011 t
#251
b10000011 $
b10000011 6
b1 %
b1 7
b101 &
b101 8
b10 (
b10 :
1*
1<
1b
b10 `
b101 ^
b1 ]
b10000011 \
b111 o
b1011 r
b1101 s
b1000 p
b10000011 u
b111 ~
b1010 n
#260
0!
0"
#270
1!
1"
b10000011 H
b1 I
b101 J
b10 L
1N
b1100 t
#280
0!
0"
#290
1!
1"
b1101 t
#291
b11000000 $
b11000000 6
b110 %
b110 7
b11 '
b11 9
b1 (
b1 :
b1 `
b11 _
b110 ]
b11000000 \
b1111 r
b10010 s
b1101 p
b1100 o
b11000000 u
b1110 n
b1100 ~
#300
0!
0"
#310
1!
1"
b11000000 H
b110 I
b11 K
b1 L
b1110 t
#320
0!
0"
#330
1!
1"
b1111 t
#331
b101010 $
b101010 6
b10 %
b10 7
b1 &
b1 8
b100 '
b100 9
b100 _
b1 ^
b10 ]
b101010 \
b1000 r
b100 o
b1110 s
b1001 p
b101010 u
b111 n
b100 ~
#340
0!
0"
#350
1!
1"
b101010 H
b10 I
b1 J
b100 K
b10000 t
#360
0!
0"
#370
1!
1"
b10001 t
#371
b11000010 $
b11000010 6
b110 %
b110 7
b100 &
b100 8
b11 '
b11 9
b11 _
b100 ^
b110 ]
b11000010 \
b1110 r
b1011 o
b10010 s
b1101 p
b11000010 u
b1101 n
b1011 ~
#380
0!
0"
#390
1!
1"
b11000010 H
b110 I
b100 J
b11 K
b10010 t
#400
0!
0"
#410
1!
1"
b10011 t
#411
b10000111 $
b10000111 6
b10 %
b10 7
b11 &
b11 8
b100 '
b100 9
0*
0<
0b
b100 _
b11 ^
b10 ]
b10000111 \
b1010 r
b110 o
b1110 s
b1001 p
b10000111 u
b1001 n
b110 ~
#420
0!
0"
#430
1!
1"
b10000111 H
b10 I
b11 J
b100 K
0N
b10100 t
#440
0!
0"
#450
1!
1"
b10101 t
#451
b1111001 $
b1111001 6
b111 %
b111 7
b10 (
b10 :
1*
1<
1b
b10 `
b111 ]
b1111001 \
b10011 s
b1110 p
b1011 o
b1111 r
b1111001 u
b1110 n
b1011 ~
#460
0!
0"
#470
1!
1"
b1111001 H
b111 I
b10 L
1N
b10110 t
#480
0!
0"
#490
1!
1"
b10111 t
#491
b10011001 $
b10011001 6
b1 %
b1 7
b100 &
b100 8
b10 '
b10 9
b1 (
b1 :
b1 `
b10 _
b100 ^
b1 ]
b10011001 \
b1000 r
b110 o
b1101 s
b1000 p
b10011001 u
b111 n
b110 ~
#500
0!
0"
#510
1!
1"
b10011001 H
b1 I
b100 J
b10 K
b1 L
b11000 t
#520
0!
0"
#530
1!
1"
b11001 t
#531
b11100110 $
b11100110 6
b110 %
b110 7
b101 &
b101 8
b101 '
b101 9
b10 (
b10 :
b10 `
b101 _
b101 ^
b110 ]
b11100110 \
b10001 r
b1100 o
b10010 s
b1101 p
b11100110 u
b10000 n
b1100 ~
#540
0!
0"
#550
1!
1"
b11100110 H
b110 I
b101 J
b101 K
b10 L
b11010 t
#560
0!
0"
#570
1!
1"
b11011 t
#571
b1100000 $
b1100000 6
b100 %
b100 7
b11 &
b11 8
b110 '
b110 9
1+
1=
1c
b110 _
b11 ^
b100 ]
b1100000 \
b1110 r
b1000 o
b10000 s
b1011 p
b1100000 u
b1101 n
b1000 ~
#580
0!
0"
#590
1!
1"
b1100000 H
b100 I
b11 J
b110 K
1O
b11100 t
b11 x
b110 y
1z
1k
b11 w
b1000 p
b1110 s
b11 l
b11 4
13
#600
0!
0"
#610
1!
1"
1W
b11 X
1E
b11 F
1i
b11101 t
0k
03
11
#611
b111 $
b111 6
b101 %
b101 7
b110 &
b110 8
0+
0=
0c
b110 ^
b101 ]
b111 \
b1100 o
b10010 r
b1111 s
b1001 p
b111 u
b1100 ~
b10001 n
#620
0!
0"
#630
1!
1"
b111 H
b101 I
b110 J
0O
1U
0W
1C
0E
b0 t
1v
#640
0!
0"
#650
1!
1"
b1 m
b1 t
0v
b110 x
0z
b0 w
1d
b1011 ~
b1 h
b1100 p
b10010 s
b0 l
b0 4
b1 0
1,
#651
b11011100 $
b11011100 6
b111 %
b111 7
b111 '
b111 9
b1 (
b1 :
b1 `
b111 _
b111 ]
b11011100 \
b10101 r
b10100 s
b1110 p
b1110 o
b11011100 u
b10100 n
b1101 ~
#660
0!
0"
#670
1!
1"
b11011100 H
b111 I
b111 K
b1 L
1P
b1 T
b0 X
1>
b1 B
b0 F
b10 t
0d
0,
#680
0!
0"
#690
1!
1"
0P
0>
b11 t
#691
b11011110 $
b11011110 6
b100 %
b100 7
b111 &
b111 8
b101 '
b101 9
b101 _
b111 ^
b100 ]
b11011110 \
b10001 r
b1100 o
b10001 s
b1011 p
b11011110 u
b10000 n
b1011 ~
#700
0!
0"
#710
1!
1"
b11011110 H
b100 I
b111 J
b101 K
b100 t
#720
0!
0"
#730
1!
1"
b101 t
#731
b1101 $
b1101 6
b110 %
b110 7
b10 &
b10 8
b10 '
b10 9
b10 (
b10 :
1+
1=
1c
b10 `
b10 _
b10 ^
b110 ]
b1101 \
b1011 r
b1001 o
b10011 s
b1101 p
b1101 u
b1010 n
b1000 ~
#740
0!
0"
#750
1!
1"
b1101 H
b110 I
b10 J
b10 K
b10 L
1O
b110 t
b10 x
b10 y
1z
1k
b11 w
b1001 p
b1011 s
b11 l
b11 4
13
#760
0!
0"
#770
1!
1"
1W
b11 X
1E
b11 F
b111 t
0k
03
#771
b1101010 $
b1101010 6
b11 %
b11 7
b110 &
b110 8
b100 '
b100 9
b11 (
b11 :
0+
0=
0c
b11 `
b100 _
b110 ^
b11 ]
b1101010 \
b1110 r
b1010 o
b1000 s
b110 p
b1101010 u
b1101 n
b1001 ~
#780
0!
0"
#790
1!
1"
b1101010 H
b11 I
b110 J
b100 K
b11 L
0O
0W
0E
b1000 t
#800
0!
0"
#810
1!
1"
b1001 t
#811
b11110100 $
b11110100 6
b1 %
b1 7
b11 '
b11 9
b11 _
b1 ]
b11110100 \
b1011 r
b110 s
b100 p
b1000 o
b11110100 u
b1010 n
b111 ~
#820
0!
0"
#830
1!
1"
b11110100 H
b1 I
b11 K
b1010 t
#840
0!
0"
#850
1!
1"
b1011 t
#851
b10101011 $
b10101011 6
b11 &
b11 8
b100 '
b100 9
b10 (
b10 :
b10 `
b100 _
b11 ^
b10101011 \
b1001 r
b101 o
b10101011 u
b1000 n
b100 ~
#860
0!
0"
#870
1!
1"
b10101011 H
b11 J
b100 K
b10 L
b1100 t
#880
0!
0"
#890
1!
1"
b1101 t
#891
b10010000 $
b10010000 6
b110 %
b110 7
b110 &
b110 8
b111 '
b111 9
b111 _
b110 ^
b110 ]
b10010000 \
b10100 r
b1101 o
b1011 s
b1001 p
b10010000 u
b10011 n
b1100 ~
#900
0!
0"
#910
1!
1"
b10010000 H
b110 I
b110 J
b111 K
b1110 t
#920
0!
0"
#930
1!
1"
b1111 t
#931
b10100010 $
b10100010 6
b101 %
b101 7
b111 &
b111 8
b110 '
b110 9
0)
0;
1+
1=
1c
0a
b110 _
b111 ^
b101 ]
b10100010 \
b10011 r
b1010 s
b1000 p
b10100010 u
b10010 n
#940
0!
0"
#950
1!
1"
b10100010 H
b101 I
b111 J
b110 K
0M
1O
b10000 t
0|
1}
1j
12
#960
0!
0"
#970
1!
1"
1V
1D
b10001 t
0}
0j
02
#971
b11100001 $
b11100001 6
b111 %
b111 7
b101 &
b101 8
b101 '
b101 9
b11 (
b11 :
1)
1;
0+
0=
0c
1a
b11 `
b101 _
b101 ^
b111 ]
b11100001 \
b10010 r
b1100 s
b1010 p
b11100001 u
b10001 n
#980
0!
0"
#990
1!
1"
b11100001 H
b111 I
b101 J
b101 K
b11 L
1M
0O
0V
0D
b10010 t
1|
#1000
0!
0"
#1010
1!
1"
b10011 t
#1011
b1001110 $
b1001110 6
b11 %
b11 7
b110 &
b110 8
b100 '
b100 9
b100 _
b110 ^
b11 ]
b1001110 \
b1110 r
b1010 o
b1000 s
b110 p
b1001110 u
b1101 n
b1001 ~
#1020
0!
0"
#1030
1!
1"
b1001110 H
b11 I
b110 J
b100 K
b10100 t
#1040
0!
0"
#1050
1!
1"
b10101 t
#1051
b11100111 $
b11100111 6
b100 %
b100 7
b100 &
b100 8
b101 '
b101 9
b1 (
b1 :
0)
0;
0a
b1 `
b101 _
b100 ^
b100 ]
b11100111 \
b1001 o
b1001 s
b111 p
b11100111 u
b1000 ~
#1060
0!
0"
#1070
1!
1"
b11100111 H
b100 I
b100 J
b101 K
b1 L
0M
b10110 t
0|
1}
1j
12
#1080
0!
0"
#1090
1!
1"
1V
1D
b10111 t
0}
0j
02
#1091
b10101110 $
b10101110 6
b1 &
b1 8
b111 '
b111 9
1)
1;
1+
1=
1c
1a
b111 _
b1 ^
b10101110 \
b1101 r
b110 o
b10101110 u
b1100 n
b101 ~
#1100
0!
0"
#1110
1!
1"
b10101110 H
b1 J
b111 K
1M
1O
0V
0D
b11000 t
1|
#1120
0!
0"
#1130
1!
1"
b11001 t
#1131
b10100011 $
b10100011 6
b1 %
b1 7
b110 &
b110 8
b110 '
b110 9
b10 (
b10 :
0+
0=
0c
b10 `
b110 _
b110 ^
b1 ]
b10100011 \
b1110 r
b1000 o
b110 s
b100 p
b10100011 u
b1101 n
b111 ~
#1140
0!
0"
#1150
1!
1"
b10100011 H
b1 I
b110 J
b110 K
b10 L
0O
b11010 t
#1160
0!
0"
#1170
1!
1"
b11011 t
#1171
b11000100 $
b11000100 6
b111 %
b111 7
b11 &
b11 8
b11 (
b11 :
1+
1=
1c
b11 `
b11 ^
b111 ]
b11000100 \
b1011 o
b10001 r
b1100 s
b1010 p
b11000100 u
b1010 ~
b10000 n
#1180
0!
0"
#1190
1!
1"
b11000100 H
b111 I
b11 J
b11 L
1O
b11100 t
#1200
0!
0"
#1210
1!
1"
b11101 t
#1211
b10011 $
b10011 6
b10 %
b10 7
b110 &
b110 8
b11 '
b11 9
0)
0;
0+
0=
0c
0a
b11 _
b110 ^
b10 ]
b10011 \
b1100 r
b1001 o
b111 s
b101 p
b10011 u
b1011 n
b1000 ~
#1220
0!
0"
#1230
1!
1"
b10011 H
b10 I
b110 J
b11 K
0M
0O
b0 t
1v
0|
1}
1j
12
#1240
0!
0"
#1250
1!
1"
1V
1D
b10 m
b1 t
0v
0}
1f
b111 ~
b10 h
0j
02
b10 0
1.
#1251
b10010000 $
b10010000 6
b100 %
b100 7
b100 '
b100 9
b10 (
b10 :
1)
1;
1a
b10 `
b100 _
b100 ]
b10010000 \
b1111 r
b1001 s
b111 p
b1011 o
b10010000 u
b1110 n
b1001 ~
#1260
0!
0"
#1270
1!
1"
b10010000 H
b100 I
b100 K
b10 L
1M
1R
b10 T
0V
1@
b10 B
0D
b10 t
1|
0f
0.
#1280
0!
0"
#1290
1!
1"
0R
0@
b11 t
#1291
b111001 $
b111001 6
b101 %
b101 7
b10 &
b10 8
b101 '
b101 9
b101 _
b10 ^
b101 ]
b111001 \
b1101 r
b1000 o
b1010 s
b1000 p
b111001 u
b1100 n
b110 ~
#1300
0!
0"
#1310
1!
1"
b111001 H
b101 I
b10 J
b101 K
b100 t
#1320
0!
0"
#1330
1!
1"
b101 t
#1331
b10000 $
b10000 6
b100 %
b100 7
b101 &
b101 8
b100 '
b100 9
0)
0;
1+
1=
1c
0a
b100 _
b101 ^
b100 ]
b10000 \
b1110 r
b1010 o
b1001 s
b111 p
b10000 u
b1101 n
b1000 ~
#1340
0!
0"
#1350
1!
1"
b10000 H
b100 I
b101 J
b100 K
0M
1O
b110 t
0|
1}
1j
12
#1360
0!
0"
#1370
1!
1"
1V
1D
b111 t
0}
0j
02
#1371
b10100 $
b10100 6
b1 %
b1 7
b111 &
b111 8
b110 '
b110 9
1)
1;
0+
0=
0c
1a
b110 _
b111 ^
b1 ]
b10100 \
b1111 r
b1001 o
b110 s
b100 p
b10100 u
b1110 n
b111 ~
#1380
0!
0"
#1390
1!
1"
b10100 H
b1 I
b111 J
b110 K
1M
0O
0V
0D
b1000 t
1|
#1400
0!
0"
#1410
1!
1"
b1001 t
#1411
b1000110 $
b1000110 6
b110 %
b110 7
b100 &
b100 8
b101 '
b101 9
b101 _
b100 ^
b110 ]
b1000110 \
b10000 r
b1011 o
b1011 s
b1001 p
b1000110 u
b1111 n
b1001 ~
#1420
0!
0"
#1430
1!
1"
b1000110 H
b110 I
b100 J
b101 K
b1010 t
#1440
0!
0"
#1450
1!
1"
b1011 t
#1451
b10100101 $
b10100101 6
b11 %
b11 7
b110 &
b110 8
b110 '
b110 9
b11 (
b11 :
0*
0<
1+
1=
1c
0b
b11 `
b110 _
b110 ^
b11 ]
b10100101 \
b1010 o
b1000 s
b110 p
b10100101 u
b1000 ~
#1460
0!
0"
#1470
1!
1"
b10100101 H
b11 I
b110 J
b110 K
b11 L
0N
1O
b1100 t
#1480
0!
0"
#1490
1!
1"
b1101 t
#1491
b110001 $
b110001 6
b10 %
b10 7
b101 &
b101 8
b11 '
b11 9
b10 (
b10 :
0+
0=
0c
b10 `
b11 _
b101 ^
b10 ]
b110001 \
b1011 r
b1000 o
b111 s
b101 p
b110001 u
b1010 n
b110 ~
#1500
0!
0"
#1510
1!
1"
b110001 H
b10 I
b101 J
b11 K
b10 L
0O
b1110 t
#1520
0!
0"
#1530
1!
1"
b1111 t
#1531
b11101010 $
b11101010 6
b1 &
b1 8
b111 '
b111 9
b1 (
b1 :
1*
1<
1b
b1 `
b111 _
b1 ^
b11101010 \
b100 o
b11101010 u
b10 ~
#1540
0!
0"
#1550
1!
1"
b11101010 H
b1 J
b111 K
b1 L
1N
b10000 t
#1560
0!
0"
#1570
1!
1"
b10001 t
#1571
b11010001 $
b11010001 6
b111 %
b111 7
b11 &
b11 8
b110 '
b110 9
b11 (
b11 :
0)
0;
0a
b11 `
b110 _
b11 ^
b111 ]
b11010001 \
b10001 r
b1011 o
b1100 s
b1010 p
b11010001 u
b10000 n
b1001 ~
#1580
0!
0"
#1590
1!
1"
b11010001 H
b111 I
b11 J
b110 K
b11 L
0M
b10010 t
0|
1}
1j
12
#1600
0!
0"
#1610
1!
1"
1V
1D
b10011 t
0}
0j
02
#1611
b11100101 $
b11100101 6
b11 '
b11 9
1)
1;
0*
0<
0b
1a
b11 _
b11100101 \
b1110 r
b11100101 u
b1101 n
#1620
0!
0"
#1630
1!
1"
b11100101 H
b11 K
1M
0N
0V
0D
b10100 t
1|
#1640
0!
0"
#1650
1!
1"
b10101 t
#1651
b100110 $
b100110 6
b101 %
b101 7
b111 &
b111 8
b10 (
b10 :
1*
1<
1b
b10 `
b111 ^
b101 ]
b100110 \
b1101 o
b10000 r
b1010 s
b1000 p
b100110 u
b1011 ~
b1111 n
#1660
0!
0"
#1670
1!
1"
b100110 H
b101 I
b111 J
b10 L
1N
b10110 t
#1680
0!
0"
#1690
1!
1"
b10111 t
#1691
b10010100 $
b10010100 6
b110 %
b110 7
b10 &
b10 8
b100 '
b100 9
b1 (
b1 :
1+
1=
1c
b1 `
b100 _
b10 ^
b110 ]
b10010100 \
b1101 r
b1001 o
b1011 s
b1001 p
b10010100 u
b1100 n
b111 ~
#1700
0!
0"
#1710
1!
1"
b10010100 H
b110 I
b10 J
b100 K
b1 L
1O
b11000 t
#1720
0!
0"
#1730
1!
1"
b11001 t
#1731
b110000 $
b110000 6
b100 %
b100 7
b10 '
b10 9
b10 (
b10 :
0)
0;
0+
0=
0c
0a
b10 `
b10 _
b100 ]
b110000 \
b1001 r
b1001 s
b111 p
b111 o
b110000 u
b1000 n
b101 ~
#1740
0!
0"
#1750
1!
1"
b110000 H
b100 I
b10 K
b10 L
0M
0O
b11010 t
0|
1}
1j
12
#1760
0!
0"
#1770
1!
1"
1V
1D
b11011 t
0}
0j
02
#1771
b11111001 $
b11111001 6
b111 %
b111 7
b110 &
b110 8
b11 '
b11 9
b1 (
b1 :
b1 `
b11 _
b110 ^
b111 ]
b11111001 \
b10001 r
b1110 o
b1100 s
b1010 p
b11111001 u
b10000 n
b1100 ~
#1780
0!
0"
#1790
1!
1"
b11111001 H
b111 I
b110 J
b11 K
b1 L
0V
0D
b11100 t
#1800
0!
0"
#1810
1!
1"
b11101 t
#1811
b11110000 $
b11110000 6
b100 %
b100 7
b101 &
b101 8
b101 '
b101 9
b11 (
b11 :
1)
1;
1a
b11 `
b101 _
b101 ^
b100 ]
b11110000 \
b1111 r
b1010 o
b1001 s
b111 p
b11110000 u
b1110 n
b1000 ~
#1820
0!
0"
#1830
1!
1"
b11110000 H
b100 I
b101 J
b101 K
b11 L
1M
b11110 t
1|
#1840
0!
0"
#1850
1!
1"
b11111 t
#1851
b10100 $
b10100 6
b110 &
b110 8
b100 '
b100 9
b1 (
b1 :
b1 `
b100 _
b110 ^
b10100 \
b1011 o
b10100 u
b1001 ~
#1860
0!
0"
#1870
1!
1"
b10100 H
b110 J
b100 K
b1 L
b0 t
1v
#1880
0!
0"
#1890
1!
1"
b11 m
b1 t
0v
b1000 ~
b11 h
b11 0
#1891
b1100101 $
b1100101 6
b10 %
b10 7
b101 &
b101 8
b110 '
b110 9
b110 _
b101 ^
b10 ]
b1100101 \
b1110 r
b1000 o
b111 s
b101 p
b1100101 u
b1101 n
b101 ~
#1900
0!
0"
#1910
1!
1"
b1100101 H
b10 I
b101 J
b110 K
b11 T
b11 B
b10 t
#1920
0!
0"
#1930
1!
1"
b11 t
#1931
b11100011 $
b11100011 6
b10 &
b10 8
b10 '
b10 9
b10 _
b10 ^
b11100011 \
b111 r
b101 o
b11100011 u
b110 n
b10 ~
#1940
0!
0"
#1950
1!
1"
b11100011 H
b10 J
b10 K
b100 t
#1960
0!
0"
#1970
1!
1"
b101 t
#1971
b10001111 $
b10001111 6
b110 %
b110 7
b100 &
b100 8
b101 '
b101 9
b101 _
b100 ^
b110 ]
b10001111 \
b10000 r
b1011 o
b1011 s
b1001 p
b10001111 u
b1111 n
b1000 ~
#1980
0!
0"
#1990
1!
1"
b10001111 H
b110 I
b100 J
b101 K
b110 t
#2000
0!
0"
#2010
1!
1"
b111 t
#2011
b11001100 $
b11001100 6
b101 %
b101 7
b111 &
b111 8
b10 (
b10 :
b10 `
b111 ^
b101 ]
b11001100 \
b1101 o
b10010 r
b1010 s
b1000 p
b11001100 u
b1010 ~
b10001 n
#2020
0!
0"
#2030
1!
1"
b11001100 H
b101 I
b111 J
b10 L
b1000 t
#2040
0!
0"
#2050
1!
1"
b1001 t
#2051
b11111010 $
b11111010 6
b11 %
b11 7
b110 &
b110 8
b1 (
b1 :
b1 `
b110 ^
b11 ]
b11111010 \
b1010 o
b1111 r
b1000 s
b110 p
b11111010 u
b111 ~
b1110 n
#2060
0!
0"
#2070
1!
1"
b11111010 H
b11 I
b110 J
b1 L
b1010 t
#2080
0!
0"
#2090
1!
1"
b1011 t
#2091
b1010100 $
b1010100 6
b101 &
b101 8
b101 ^
b1010100 \
b1001 o
b1110 r
b1010100 u
b110 ~
b1101 n
#2100
0!
0"
#2110
1!
1"
b1010100 H
b101 J
b1100 t
#2120
0!
0"
#2130
1!
1"
b1101 t
#2131
b11011100 $
b11011100 6
b100 %
b100 7
b1 &
b1 8
b111 '
b111 9
b111 _
b1 ^
b100 ]
b11011100 \
b1101 r
b110 o
b1001 s
b111 p
b11011100 u
b1100 n
b11 ~
#2140
0!
0"
#2150
1!
1"
b11011100 H
b100 I
b1 J
b111 K
b1110 t
#2160
0!
0"
#2170
1!
1"
b1111 t
#2171
b10010001 $
b10010001 6
b111 &
b111 8
b100 '
b100 9
b11 (
b11 :
0)
0;
0a
b11 `
b100 _
b111 ^
b10010001 \
b10000 r
b1100 o
b10010001 u
b1111 n
b1001 ~
#2180
0!
0"
#2190
1!
1"
b10010001 H
b111 J
b100 K
b11 L
0M
b10000 t
0|
1}
1j
12
#2200
0!
0"
#2210
1!
1"
1V
1D
b10001 t
0}
0j
02
#2211
b1110100 $
b1110100 6
b1 %
b1 7
b100 &
b100 8
b101 '
b101 9
b10 (
b10 :
1)
1;
1a
b10 `
b101 _
b100 ^
b1 ]
b1110100 \
b1011 r
b110 o
b110 s
b100 p
b1110100 u
b1010 n
b11 ~
#2220
0!
0"
#2230
1!
1"
b1110100 H
b1 I
b100 J
b101 K
b10 L
1M
0V
0D
b10010 t
1|
#2240
0!
0"
#2250
1!
1"
b10011 t
#2251
b10000100 $
b10000100 6
b110 &
b110 8
b11 '
b11 9
b1 (
b1 :
1+
1=
1c
b1 `
b11 _
b110 ^
b10000100 \
b1000 o
b10000100 u
b101 ~
#2260
0!
0"
#2270
1!
1"
b10000100 H
b110 J
b11 K
b1 L
1O
b10100 t
#2280
0!
0"
#2290
1!
1"
b10101 t
#2291
b11000001 $
b11000001 6
b110 %
b110 7
b101 &
b101 8
b101 '
b101 9
0+
0=
0c
b101 _
b101 ^
b110 ]
b11000001 \
b10001 r
b1100 o
b1011 s
b1001 p
b11000001 u
b10000 n
b1001 ~
#2300
0!
0"
#2310
1!
1"
b11000001 H
b110 I
b101 J
b101 K
0O
b10110 t
#2320
0!
0"
#2330
1!
1"
b10111 t
#2331
b101011 $
b101011 6
b10 %
b10 7
b11 &
b11 8
b111 '
b111 9
b10 (
b10 :
b10 `
b111 _
b11 ^
b10 ]
b101011 \
b1101 r
b110 o
b111 s
b101 p
b101011 u
b1100 n
b11 ~
#2340
0!
0"
#2350
1!
1"
b101011 H
b10 I
b11 J
b111 K
b10 L
b11000 t
#2360
0!
0"
#2370
1!
1"
b11001 t
#2371
b11000011 $
b11000011 6
b110 %
b110 7
b100 &
b100 8
b11 '
b11 9
b11 (
b11 :
0*
0<
0b
b11 `
b11 _
b100 ^
b110 ]
b11000011 \
b1110 r
b1011 o
b1011 s
b1001 p
b11000011 u
b1101 n
b1000 ~
#2380
0!
0"
#2390
1!
1"
b11000011 H
b110 I
b100 J
b11 K
b11 L
0N
b11010 t
#2400
0!
0"
#2410
1!
1"
b11011 t
#2411
b10001000 $
b10001000 6
b10 %
b10 7
b100 '
b100 9
b10 (
b10 :
0)
0;
1*
1<
1b
0a
b10 `
b100 _
b10 ]
b10001000 \
b1011 r
b111 s
b101 p
b111 o
b10001000 u
b1010 n
b100 ~
#2420
0!
0"
#2430
1!
1"
b10001000 H
b10 I
b100 K
b10 L
0M
1N
b11100 t
0|
1}
1j
12
#2440
0!
0"
#2450
1!
1"
1V
1D
b11101 t
0}
0j
02
#2451
b1111010 $
b1111010 6
1)
1;
0*
0<
0b
1a
b1111010 \
b1111010 u
#2460
0!
0"
